%!PS-Adobe-3.0 EPSF-3.0
%%Creator: (MATLAB, The Mathworks, Inc. Version 8.5.0.197613 \(R2015a\). Operating System: Linux)
%%Title: /home/han/Projects/NumericalMaths/NM1_LAB_2/report/images/int_one_tol.eps
%%CreationDate: 2016-05-02T14:54:24
%%Pages: (atend)
%%BoundingBox: 0 0 428 311
%%LanguageLevel: 2
%%EndComments
%%BeginProlog
%%BeginResource: procset (Apache XML Graphics Std ProcSet) 1.2 0
%%Version: 1.2 0
%%Copyright: (Copyright 2001-2003,2010 The Apache Software Foundation. License terms: http://www.apache.org/licenses/LICENSE-2.0)
/bd{bind def}bind def
/ld{load def}bd
/GR/grestore ld
/M/moveto ld
/LJ/setlinejoin ld
/C/curveto ld
/f/fill ld
/LW/setlinewidth ld
/GC/setgray ld
/t/show ld
/N/newpath ld
/CT/concat ld
/cp/closepath ld
/S/stroke ld
/L/lineto ld
/CC/setcmykcolor ld
/A/ashow ld
/GS/gsave ld
/RC/setrgbcolor ld
/RM/rmoveto ld
/ML/setmiterlimit ld
/re {4 2 roll M
1 index 0 rlineto
0 exch rlineto
neg 0 rlineto
cp } bd
/_ctm matrix def
/_tm matrix def
/BT { _ctm currentmatrix pop matrix _tm copy pop 0 0 moveto } bd
/ET { _ctm setmatrix } bd
/iTm { _ctm setmatrix _tm concat } bd
/Tm { _tm astore pop iTm 0 0 moveto } bd
/ux 0.0 def
/uy 0.0 def
/F {
  /Tp exch def
  /Tf exch def
  Tf findfont Tp scalefont setfont
  /cf Tf def  /cs Tp def
} bd
/ULS {currentpoint /uy exch def /ux exch def} bd
/ULE {
  /Tcx currentpoint pop def
  gsave
  newpath
  cf findfont cs scalefont dup
  /FontMatrix get 0 get /Ts exch def /FontInfo get dup
  /UnderlinePosition get Ts mul /To exch def
  /UnderlineThickness get Ts mul /Tt exch def
  ux uy To add moveto  Tcx uy To add lineto
  Tt setlinewidth stroke
  grestore
} bd
/OLE {
  /Tcx currentpoint pop def
  gsave
  newpath
  cf findfont cs scalefont dup
  /FontMatrix get 0 get /Ts exch def /FontInfo get dup
  /UnderlinePosition get Ts mul /To exch def
  /UnderlineThickness get Ts mul /Tt exch def
  ux uy To add cs add moveto Tcx uy To add cs add lineto
  Tt setlinewidth stroke
  grestore
} bd
/SOE {
  /Tcx currentpoint pop def
  gsave
  newpath
  cf findfont cs scalefont dup
  /FontMatrix get 0 get /Ts exch def /FontInfo get dup
  /UnderlinePosition get Ts mul /To exch def
  /UnderlineThickness get Ts mul /Tt exch def
  ux uy To add cs 10 mul 26 idiv add moveto Tcx uy To add cs 10 mul 26 idiv add lineto
  Tt setlinewidth stroke
  grestore
} bd
/QT {
/Y22 exch store
/X22 exch store
/Y21 exch store
/X21 exch store
currentpoint
/Y21 load 2 mul add 3 div exch
/X21 load 2 mul add 3 div exch
/X21 load 2 mul /X22 load add 3 div
/Y21 load 2 mul /Y22 load add 3 div
/X22 load /Y22 load curveto
} bd
/SSPD {
dup length /d exch dict def
{
/v exch def
/k exch def
currentpagedevice k known {
/cpdv currentpagedevice k get def
v cpdv ne {
/upd false def
/nullv v type /nulltype eq def
/nullcpdv cpdv type /nulltype eq def
nullv nullcpdv or
{
/upd true def
} {
/sametype v type cpdv type eq def
sametype {
v type /arraytype eq {
/vlen v length def
/cpdvlen cpdv length def
vlen cpdvlen eq {
0 1 vlen 1 sub {
/i exch def
/obj v i get def
/cpdobj cpdv i get def
obj cpdobj ne {
/upd true def
exit
} if
} for
} {
/upd true def
} ifelse
} {
v type /dicttype eq {
v {
/dv exch def
/dk exch def
/cpddv cpdv dk get def
dv cpddv ne {
/upd true def
exit
} if
} forall
} {
/upd true def
} ifelse
} ifelse
} if
} ifelse
upd true eq {
d k v put
} if
} if
} if
} forall
d length 0 gt {
d setpagedevice
} if
} bd
%%EndResource
%%BeginResource: procset (Apache XML Graphics EPS ProcSet) 1.0 0
%%Version: 1.0 0
%%Copyright: (Copyright 2002-2003 The Apache Software Foundation. License terms: http://www.apache.org/licenses/LICENSE-2.0)
/BeginEPSF { %def
/b4_Inc_state save def         % Save state for cleanup
/dict_count countdictstack def % Count objects on dict stack
/op_count count 1 sub def      % Count objects on operand stack
userdict begin                 % Push userdict on dict stack
/showpage { } def              % Redefine showpage, { } = null proc
0 setgray 0 setlinecap         % Prepare graphics state
1 setlinewidth 0 setlinejoin
10 setmiterlimit [ ] 0 setdash newpath
/languagelevel where           % If level not equal to 1 then
{pop languagelevel             % set strokeadjust and
1 ne                           % overprint to their defaults.
{false setstrokeadjust false setoverprint
} if
} if
} bd
/EndEPSF { %def
count op_count sub {pop} repeat            % Clean up stacks
countdictstack dict_count sub {end} repeat
b4_Inc_state restore
} bd
%%EndResource
%FOPBeginFontDict
%%IncludeResource: font Courier-Bold
%%IncludeResource: font Helvetica
%%IncludeResource: font Courier-BoldOblique
%%IncludeResource: font Courier-Oblique
%%IncludeResource: font Times-Roman
%%IncludeResource: font Helvetica-BoldOblique
%%IncludeResource: font Helvetica-Bold
%%IncludeResource: font Helvetica-Oblique
%%IncludeResource: font Times-BoldItalic
%%IncludeResource: font Courier
%%IncludeResource: font Times-Italic
%%IncludeResource: font Times-Bold
%%IncludeResource: font Symbol
%%IncludeResource: font ZapfDingbats
%FOPEndFontDict
%%BeginResource: encoding WinAnsiEncoding
/WinAnsiEncoding [
/.notdef /.notdef /.notdef /.notdef /.notdef
/.notdef /.notdef /.notdef /.notdef /.notdef
/.notdef /.notdef /.notdef /.notdef /.notdef
/.notdef /.notdef /.notdef /.notdef /.notdef
/.notdef /.notdef /.notdef /.notdef /.notdef
/.notdef /.notdef /.notdef /.notdef /.notdef
/.notdef /.notdef /space /exclam /quotedbl
/numbersign /dollar /percent /ampersand /quotesingle
/parenleft /parenright /asterisk /plus /comma
/hyphen /period /slash /zero /one
/two /three /four /five /six
/seven /eight /nine /colon /semicolon
/less /equal /greater /question /at
/A /B /C /D /E
/F /G /H /I /J
/K /L /M /N /O
/P /Q /R /S /T
/U /V /W /X /Y
/Z /bracketleft /backslash /bracketright /asciicircum
/underscore /quoteleft /a /b /c
/d /e /f /g /h
/i /j /k /l /m
/n /o /p /q /r
/s /t /u /v /w
/x /y /z /braceleft /bar
/braceright /asciitilde /bullet /Euro /bullet
/quotesinglbase /florin /quotedblbase /ellipsis /dagger
/daggerdbl /circumflex /perthousand /Scaron /guilsinglleft
/OE /bullet /Zcaron /bullet /bullet
/quoteleft /quoteright /quotedblleft /quotedblright /bullet
/endash /emdash /asciitilde /trademark /scaron
/guilsinglright /oe /bullet /zcaron /Ydieresis
/space /exclamdown /cent /sterling /currency
/yen /brokenbar /section /dieresis /copyright
/ordfeminine /guillemotleft /logicalnot /sfthyphen /registered
/macron /degree /plusminus /twosuperior /threesuperior
/acute /mu /paragraph /middot /cedilla
/onesuperior /ordmasculine /guillemotright /onequarter /onehalf
/threequarters /questiondown /Agrave /Aacute /Acircumflex
/Atilde /Adieresis /Aring /AE /Ccedilla
/Egrave /Eacute /Ecircumflex /Edieresis /Igrave
/Iacute /Icircumflex /Idieresis /Eth /Ntilde
/Ograve /Oacute /Ocircumflex /Otilde /Odieresis
/multiply /Oslash /Ugrave /Uacute /Ucircumflex
/Udieresis /Yacute /Thorn /germandbls /agrave
/aacute /acircumflex /atilde /adieresis /aring
/ae /ccedilla /egrave /eacute /ecircumflex
/edieresis /igrave /iacute /icircumflex /idieresis
/eth /ntilde /ograve /oacute /ocircumflex
/otilde /odieresis /divide /oslash /ugrave
/uacute /ucircumflex /udieresis /yacute /thorn
/ydieresis
] def
%%EndResource
%FOPBeginFontReencode
/Courier-Bold findfont
dup length dict begin
  {1 index /FID ne {def} {pop pop} ifelse} forall
  /Encoding WinAnsiEncoding def
  currentdict
end
/Courier-Bold exch definefont pop
/Helvetica findfont
dup length dict begin
  {1 index /FID ne {def} {pop pop} ifelse} forall
  /Encoding WinAnsiEncoding def
  currentdict
end
/Helvetica exch definefont pop
/Courier-BoldOblique findfont
dup length dict begin
  {1 index /FID ne {def} {pop pop} ifelse} forall
  /Encoding WinAnsiEncoding def
  currentdict
end
/Courier-BoldOblique exch definefont pop
/Courier-Oblique findfont
dup length dict begin
  {1 index /FID ne {def} {pop pop} ifelse} forall
  /Encoding WinAnsiEncoding def
  currentdict
end
/Courier-Oblique exch definefont pop
/Times-Roman findfont
dup length dict begin
  {1 index /FID ne {def} {pop pop} ifelse} forall
  /Encoding WinAnsiEncoding def
  currentdict
end
/Times-Roman exch definefont pop
/Helvetica-BoldOblique findfont
dup length dict begin
  {1 index /FID ne {def} {pop pop} ifelse} forall
  /Encoding WinAnsiEncoding def
  currentdict
end
/Helvetica-BoldOblique exch definefont pop
/Helvetica-Bold findfont
dup length dict begin
  {1 index /FID ne {def} {pop pop} ifelse} forall
  /Encoding WinAnsiEncoding def
  currentdict
end
/Helvetica-Bold exch definefont pop
/Helvetica-Oblique findfont
dup length dict begin
  {1 index /FID ne {def} {pop pop} ifelse} forall
  /Encoding WinAnsiEncoding def
  currentdict
end
/Helvetica-Oblique exch definefont pop
/Times-BoldItalic findfont
dup length dict begin
  {1 index /FID ne {def} {pop pop} ifelse} forall
  /Encoding WinAnsiEncoding def
  currentdict
end
/Times-BoldItalic exch definefont pop
/Courier findfont
dup length dict begin
  {1 index /FID ne {def} {pop pop} ifelse} forall
  /Encoding WinAnsiEncoding def
  currentdict
end
/Courier exch definefont pop
/Times-Italic findfont
dup length dict begin
  {1 index /FID ne {def} {pop pop} ifelse} forall
  /Encoding WinAnsiEncoding def
  currentdict
end
/Times-Italic exch definefont pop
/Times-Bold findfont
dup length dict begin
  {1 index /FID ne {def} {pop pop} ifelse} forall
  /Encoding WinAnsiEncoding def
  currentdict
end
/Times-Bold exch definefont pop
%FOPEndFontReencode
%%EndProlog
%%Page: 1 1
%%PageBoundingBox: 0 0 428 311
%%BeginPageSetup
[1 0 0 -1 0 311] CT
%%EndPageSetup
GS
[0.75 0 0 0.75 0 0.5] CT
N
0 0 M
570 0 L
570 414 L
0 414 L
0 0 L
cp
clip
1 GC
N
0 0 570 414 re
f
GR
GS
[0.75 0 0 0.75 0 0.5] CT
1 GC
N
0 0 570 414 re
f
GR
GS
[0.75 0 0 0.75 0 0.5] CT
1 GC
N
74 364 M
516 364 L
516 31 L
74 31 L
cp
f
GR
GS
[0.75 0 0 0.75 221.25016 294.24999] CT
0.149 GC
/Helvetica 15 F
GS
[1 0 0 1 0 0] CT
-51 17 moveto 
1 -1 scale
(Error estimate) t 
GR
GR
GS
[0.75 0 0 0.75 0 0.5] CT
0.149 GC
2 setlinecap
10.0 ML
N
74 364 M
516 364 L
S
GR
GS
[0.75 0 0 0.75 0 0.5] CT
0.149 GC
2 setlinecap
10.0 ML
N
74 31 M
516 31 L
S
GR
GS
[0.75 0 0 0.75 0 0.5] CT
0.149 GC
2 setlinecap
10.0 ML
N
74 364 M
74 359.58 L
S
GR
GS
[0.75 0 0 0.75 0 0.5] CT
0.149 GC
2 setlinecap
10.0 ML
N
147.667 364 M
147.667 359.58 L
S
GR
GS
[0.75 0 0 0.75 0 0.5] CT
0.149 GC
2 setlinecap
10.0 ML
N
221.333 364 M
221.333 359.58 L
S
GR
GS
[0.75 0 0 0.75 0 0.5] CT
0.149 GC
2 setlinecap
10.0 ML
N
295 364 M
295 359.58 L
S
GR
GS
[0.75 0 0 0.75 0 0.5] CT
0.149 GC
2 setlinecap
10.0 ML
N
368.667 364 M
368.667 359.58 L
S
GR
GS
[0.75 0 0 0.75 0 0.5] CT
0.149 GC
2 setlinecap
10.0 ML
N
442.333 364 M
442.333 359.58 L
S
GR
GS
[0.75 0 0 0.75 0 0.5] CT
0.149 GC
2 setlinecap
10.0 ML
N
516 364 M
516 359.58 L
S
GR
GS
[0.75 0 0 0.75 0 0.5] CT
0.149 GC
2 setlinecap
10.0 ML
N
74 31 M
74 35.42 L
S
GR
GS
[0.75 0 0 0.75 0 0.5] CT
0.149 GC
2 setlinecap
10.0 ML
N
147.667 31 M
147.667 35.42 L
S
GR
GS
[0.75 0 0 0.75 0 0.5] CT
0.149 GC
2 setlinecap
10.0 ML
N
221.333 31 M
221.333 35.42 L
S
GR
GS
[0.75 0 0 0.75 0 0.5] CT
0.149 GC
2 setlinecap
10.0 ML
N
295 31 M
295 35.42 L
S
GR
GS
[0.75 0 0 0.75 0 0.5] CT
0.149 GC
2 setlinecap
10.0 ML
N
368.667 31 M
368.667 35.42 L
S
GR
GS
[0.75 0 0 0.75 0 0.5] CT
0.149 GC
2 setlinecap
10.0 ML
N
442.333 31 M
442.333 35.42 L
S
GR
GS
[0.75 0 0 0.75 0 0.5] CT
0.149 GC
2 setlinecap
10.0 ML
N
516 31 M
516 35.42 L
S
GR
GS
[0.75 0 0 0.75 43.5 290.75] CT
0.149 GC
/Helvetica 13 F
GS
[1 0 0 1 0 0] CT
0 0 moveto 
1 -1 scale
(10) t 
GR
GR
GS
[0.75 0 0 0.75 54.75 286.25] CT
0.149 GC
/Helvetica 11 F
GS
[1 0 0 1 0 0] CT
0 0 moveto 
1 -1 scale
(-12) t 
GR
GR
GS
[0.75 0 0 0.75 99 290.75] CT
0.149 GC
/Helvetica 13 F
GS
[1 0 0 1 0 0] CT
0 0 moveto 
1 -1 scale
(10) t 
GR
GR
GS
[0.75 0 0 0.75 110.25 286.25] CT
0.149 GC
/Helvetica 11 F
GS
[1 0 0 1 0 0] CT
0 0 moveto 
1 -1 scale
(-10) t 
GR
GR
GS
[0.75 0 0 0.75 156 290.75] CT
0.149 GC
/Helvetica 13 F
GS
[1 0 0 1 0 0] CT
0 0 moveto 
1 -1 scale
(10) t 
GR
GR
GS
[0.75 0 0 0.75 167.25 286.25] CT
0.149 GC
/Helvetica 11 F
GS
[1 0 0 1 0 0] CT
0 0 moveto 
1 -1 scale
(-8) t 
GR
GR
GS
[0.75 0 0 0.75 211.5 290.75] CT
0.149 GC
/Helvetica 13 F
GS
[1 0 0 1 0 0] CT
0 0 moveto 
1 -1 scale
(10) t 
GR
GR
GS
[0.75 0 0 0.75 222.75 286.25] CT
0.149 GC
/Helvetica 11 F
GS
[1 0 0 1 0 0] CT
0 0 moveto 
1 -1 scale
(-6) t 
GR
GR
GS
[0.75 0 0 0.75 267 290.75] CT
0.149 GC
/Helvetica 13 F
GS
[1 0 0 1 0 0] CT
0 0 moveto 
1 -1 scale
(10) t 
GR
GR
GS
[0.75 0 0 0.75 278.25 286.25] CT
0.149 GC
/Helvetica 11 F
GS
[1 0 0 1 0 0] CT
0 0 moveto 
1 -1 scale
(-4) t 
GR
GR
GS
[0.75 0 0 0.75 321.75 290.75] CT
0.149 GC
/Helvetica 13 F
GS
[1 0 0 1 0 0] CT
0 0 moveto 
1 -1 scale
(10) t 
GR
GR
GS
[0.75 0 0 0.75 333 286.25] CT
0.149 GC
/Helvetica 11 F
GS
[1 0 0 1 0 0] CT
0 0 moveto 
1 -1 scale
(-2) t 
GR
GR
GS
[0.75 0 0 0.75 378.75 290.75] CT
0.149 GC
/Helvetica 13 F
GS
[1 0 0 1 0 0] CT
0 0 moveto 
1 -1 scale
(10) t 
GR
GR
GS
[0.75 0 0 0.75 390 286.25] CT
0.149 GC
/Helvetica 11 F
GS
[1 0 0 1 0 0] CT
0 0 moveto 
1 -1 scale
(0) t 
GR
GR
GS
[0 -0.75 0.75 0 32 148.62489] CT
0.149 GC
/Helvetica 15 F
GS
[1 0 0 1 0 0] CT
-37 -5 moveto 
1 -1 scale
(# intervals) t 
GR
GR
GS
[0.75 0 0 0.75 0 0.5] CT
0.149 GC
2 setlinecap
10.0 ML
N
74 364 M
74 31 L
S
GR
GS
[0.75 0 0 0.75 0 0.5] CT
0.149 GC
2 setlinecap
10.0 ML
N
516 364 M
516 31 L
S
GR
GS
[0.75 0 0 0.75 0 0.5] CT
0.149 GC
2 setlinecap
10.0 ML
N
74 364 M
78.42 364 L
S
GR
GS
[0.75 0 0 0.75 0 0.5] CT
0.149 GC
2 setlinecap
10.0 ML
N
74 280.75 M
78.42 280.75 L
S
GR
GS
[0.75 0 0 0.75 0 0.5] CT
0.149 GC
2 setlinecap
10.0 ML
N
74 197.5 M
78.42 197.5 L
S
GR
GS
[0.75 0 0 0.75 0 0.5] CT
0.149 GC
2 setlinecap
10.0 ML
N
74 114.25 M
78.42 114.25 L
S
GR
GS
[0.75 0 0 0.75 0 0.5] CT
0.149 GC
2 setlinecap
10.0 ML
N
74 31 M
78.42 31 L
S
GR
GS
[0.75 0 0 0.75 0 0.5] CT
0.149 GC
2 setlinecap
10.0 ML
N
516 364 M
511.58 364 L
S
GR
GS
[0.75 0 0 0.75 0 0.5] CT
0.149 GC
2 setlinecap
10.0 ML
N
516 280.75 M
511.58 280.75 L
S
GR
GS
[0.75 0 0 0.75 0 0.5] CT
0.149 GC
2 setlinecap
10.0 ML
N
516 197.5 M
511.58 197.5 L
S
GR
GS
[0.75 0 0 0.75 0 0.5] CT
0.149 GC
2 setlinecap
10.0 ML
N
516 114.25 M
511.58 114.25 L
S
GR
GS
[0.75 0 0 0.75 0 0.5] CT
0.149 GC
2 setlinecap
10.0 ML
N
516 31 M
511.58 31 L
S
GR
GS
[0.75 0 0 0.75 35.25 278.75] CT
0.149 GC
/Helvetica 13 F
GS
[1 0 0 1 0 0] CT
0 0 moveto 
1 -1 scale
(10) t 
GR
GR
GS
[0.75 0 0 0.75 46.5 274.25] CT
0.149 GC
/Helvetica 11 F
GS
[1 0 0 1 0 0] CT
0 0 moveto 
1 -1 scale
(0) t 
GR
GR
GS
[0.75 0 0 0.75 35.25 216.5] CT
0.149 GC
/Helvetica 13 F
GS
[1 0 0 1 0 0] CT
0 0 moveto 
1 -1 scale
(10) t 
GR
GR
GS
[0.75 0 0 0.75 46.5 212] CT
0.149 GC
/Helvetica 11 F
GS
[1 0 0 1 0 0] CT
0 0 moveto 
1 -1 scale
(2) t 
GR
GR
GS
[0.75 0 0 0.75 35.25 154.25] CT
0.149 GC
/Helvetica 13 F
GS
[1 0 0 1 0 0] CT
0 0 moveto 
1 -1 scale
(10) t 
GR
GR
GS
[0.75 0 0 0.75 46.5 149.75] CT
0.149 GC
/Helvetica 11 F
GS
[1 0 0 1 0 0] CT
0 0 moveto 
1 -1 scale
(4) t 
GR
GR
GS
[0.75 0 0 0.75 35.25 91.25] CT
0.149 GC
/Helvetica 13 F
GS
[1 0 0 1 0 0] CT
0 0 moveto 
1 -1 scale
(10) t 
GR
GR
GS
[0.75 0 0 0.75 46.5 86.75] CT
0.149 GC
/Helvetica 11 F
GS
[1 0 0 1 0 0] CT
0 0 moveto 
1 -1 scale
(6) t 
GR
GR
GS
[0.75 0 0 0.75 35.25 29] CT
0.149 GC
/Helvetica 13 F
GS
[1 0 0 1 0 0] CT
0 0 moveto 
1 -1 scale
(10) t 
GR
GR
GS
[0.75 0 0 0.75 46.5 24.5] CT
0.149 GC
/Helvetica 11 F
GS
[1 0 0 1 0 0] CT
0 0 moveto 
1 -1 scale
(8) t 
GR
GR
GS
[0.75 0 0 0.75 0 0.5] CT
0 0.447 0.741 RC
2 setlinecap
10.0 ML
N
479.574 364 M
464.409 351.47 L
448.581 338.939 L
432.386 326.409 L
416.003 313.879 L
399.519 301.348 L
382.979 288.818 L
366.406 276.287 L
349.813 263.757 L
333.207 251.227 L
316.593 238.696 L
299.973 226.166 L
283.35 213.636 L
266.724 201.105 L
250.096 188.575 L
233.467 176.044 L
216.837 163.514 L
200.207 150.984 L
183.576 138.453 L
166.945 125.923 L
150.313 113.393 L
133.681 100.862 L
S
GR
GS
[0.75 0 0 0.75 0 0.5] CT
0.851 0.325 0.098 RC
2 setlinecap
10.0 ML
N
479.574 364 M
464.409 351.47 L
448.581 338.939 L
432.386 326.409 L
416.003 313.879 L
399.519 301.348 L
382.979 288.818 L
366.406 276.287 L
349.813 263.757 L
333.207 251.227 L
316.593 238.696 L
299.973 226.166 L
283.35 213.636 L
266.724 201.105 L
250.096 188.575 L
233.48 179.64 L
216.912 174.271 L
200.482 170.885 L
184.426 168.65 L
169.335 167.09 L
156.409 165.953 L
147.151 165.104 L
141.964 164.458 L
139.639 163.962 L
138.729 163.578 L
138.395 163.279 L
138.275 163.045 L
138.233 162.861 L
138.218 162.717 L
138.213 162.603 L
138.211 162.513 L
138.21 162.443 L
138.21 162.386 L
138.21 162.342 L
138.21 162.307 L
138.21 162.279 L
138.21 162.257 L
138.21 162.239 L
138.21 162.225 L
138.21 162.214 L
138.21 162.206 L
138.21 162.199 L
138.21 162.193 L
138.21 162.189 L
138.21 162.185 L
138.21 162.183 L
138.21 162.18 L
138.21 162.178 L
138.21 162.177 L
138.21 162.176 L
S
GR
GS
[0.75 0 0 0.75 0 0.5] CT
0.851 0.325 0.098 RC
2 setlinecap
10.0 ML
N
138.21 162.176 M
138.21 162.175 L
138.21 162.175 L
138.21 162.174 L
138.21 162.174 L
S
GR
GS
[0.75 0 0 0.75 221.25021 21.68129] CT
/Helvetica-Bold 15 F
GS
[1 0 0 1 0 0] CT
-38.5 -5 moveto 
1 -1 scale
(tol = 1e-10) t 
GR
GR
GS
[0.75 0 0 0.75 0 0.5] CT
1 GC
N
319 84 M
319 44 L
503 44 L
503 84 L
cp
f
GR
GS
[0.75 0 0 0.75 278.25 41.875] CT
/Helvetica 12 F
GS
[1 0 0 1 0 0] CT
0 4.5 moveto 
1 -1 scale
(Composite trapezoidal) t 
GR
GR
GS
[0.75 0 0 0.75 0 0.5] CT
0 0.447 0.741 RC
2 setlinecap
10.0 ML
N
327 55.167 M
367 55.167 L
S
GR
GS
[0.75 0 0 0.75 278.25 55.125] CT
/Helvetica 12 F
GS
[1 0 0 1 0 0] CT
0 4.5 moveto 
1 -1 scale
(Adaptive trapezoidal) t 
GR
GR
GS
[0.75 0 0 0.75 0 0.5] CT
0.851 0.325 0.098 RC
2 setlinecap
10.0 ML
N
327 72.833 M
367 72.833 L
S
GR
GS
[0.75 0 0 0.75 0 0.5] CT
0.149 GC
2 setlinecap
10.0 ML
N
319 84 M
319 44 L
503 44 L
503 84 L
319 84 L
S
GR
%%Trailer
%%Pages: 1
%%EOF
