%!PS-Adobe-3.0 EPSF-3.0
%%Creator: (MATLAB, The Mathworks, Inc. Version 8.5.0.197613 \(R2015a\). Operating System: Linux)
%%Title: /home/han/Projects/NumericalMaths/NM1_LAB_2/report/images/nodes_error.eps
%%CreationDate: 2016-04-27T17:12:14
%%Pages: (atend)
%%BoundingBox: 0 0 420 315
%%LanguageLevel: 2
%%EndComments
%%BeginProlog
%%BeginResource: procset (Apache XML Graphics Std ProcSet) 1.2 0
%%Version: 1.2 0
%%Copyright: (Copyright 2001-2003,2010 The Apache Software Foundation. License terms: http://www.apache.org/licenses/LICENSE-2.0)
/bd{bind def}bind def
/ld{load def}bd
/GR/grestore ld
/M/moveto ld
/LJ/setlinejoin ld
/C/curveto ld
/f/fill ld
/LW/setlinewidth ld
/GC/setgray ld
/t/show ld
/N/newpath ld
/CT/concat ld
/cp/closepath ld
/S/stroke ld
/L/lineto ld
/CC/setcmykcolor ld
/A/ashow ld
/GS/gsave ld
/RC/setrgbcolor ld
/RM/rmoveto ld
/ML/setmiterlimit ld
/re {4 2 roll M
1 index 0 rlineto
0 exch rlineto
neg 0 rlineto
cp } bd
/_ctm matrix def
/_tm matrix def
/BT { _ctm currentmatrix pop matrix _tm copy pop 0 0 moveto } bd
/ET { _ctm setmatrix } bd
/iTm { _ctm setmatrix _tm concat } bd
/Tm { _tm astore pop iTm 0 0 moveto } bd
/ux 0.0 def
/uy 0.0 def
/F {
  /Tp exch def
  /Tf exch def
  Tf findfont Tp scalefont setfont
  /cf Tf def  /cs Tp def
} bd
/ULS {currentpoint /uy exch def /ux exch def} bd
/ULE {
  /Tcx currentpoint pop def
  gsave
  newpath
  cf findfont cs scalefont dup
  /FontMatrix get 0 get /Ts exch def /FontInfo get dup
  /UnderlinePosition get Ts mul /To exch def
  /UnderlineThickness get Ts mul /Tt exch def
  ux uy To add moveto  Tcx uy To add lineto
  Tt setlinewidth stroke
  grestore
} bd
/OLE {
  /Tcx currentpoint pop def
  gsave
  newpath
  cf findfont cs scalefont dup
  /FontMatrix get 0 get /Ts exch def /FontInfo get dup
  /UnderlinePosition get Ts mul /To exch def
  /UnderlineThickness get Ts mul /Tt exch def
  ux uy To add cs add moveto Tcx uy To add cs add lineto
  Tt setlinewidth stroke
  grestore
} bd
/SOE {
  /Tcx currentpoint pop def
  gsave
  newpath
  cf findfont cs scalefont dup
  /FontMatrix get 0 get /Ts exch def /FontInfo get dup
  /UnderlinePosition get Ts mul /To exch def
  /UnderlineThickness get Ts mul /Tt exch def
  ux uy To add cs 10 mul 26 idiv add moveto Tcx uy To add cs 10 mul 26 idiv add lineto
  Tt setlinewidth stroke
  grestore
} bd
/QT {
/Y22 exch store
/X22 exch store
/Y21 exch store
/X21 exch store
currentpoint
/Y21 load 2 mul add 3 div exch
/X21 load 2 mul add 3 div exch
/X21 load 2 mul /X22 load add 3 div
/Y21 load 2 mul /Y22 load add 3 div
/X22 load /Y22 load curveto
} bd
/SSPD {
dup length /d exch dict def
{
/v exch def
/k exch def
currentpagedevice k known {
/cpdv currentpagedevice k get def
v cpdv ne {
/upd false def
/nullv v type /nulltype eq def
/nullcpdv cpdv type /nulltype eq def
nullv nullcpdv or
{
/upd true def
} {
/sametype v type cpdv type eq def
sametype {
v type /arraytype eq {
/vlen v length def
/cpdvlen cpdv length def
vlen cpdvlen eq {
0 1 vlen 1 sub {
/i exch def
/obj v i get def
/cpdobj cpdv i get def
obj cpdobj ne {
/upd true def
exit
} if
} for
} {
/upd true def
} ifelse
} {
v type /dicttype eq {
v {
/dv exch def
/dk exch def
/cpddv cpdv dk get def
dv cpddv ne {
/upd true def
exit
} if
} forall
} {
/upd true def
} ifelse
} ifelse
} if
} ifelse
upd true eq {
d k v put
} if
} if
} if
} forall
d length 0 gt {
d setpagedevice
} if
} bd
%%EndResource
%%BeginResource: procset (Apache XML Graphics EPS ProcSet) 1.0 0
%%Version: 1.0 0
%%Copyright: (Copyright 2002-2003 The Apache Software Foundation. License terms: http://www.apache.org/licenses/LICENSE-2.0)
/BeginEPSF { %def
/b4_Inc_state save def         % Save state for cleanup
/dict_count countdictstack def % Count objects on dict stack
/op_count count 1 sub def      % Count objects on operand stack
userdict begin                 % Push userdict on dict stack
/showpage { } def              % Redefine showpage, { } = null proc
0 setgray 0 setlinecap         % Prepare graphics state
1 setlinewidth 0 setlinejoin
10 setmiterlimit [ ] 0 setdash newpath
/languagelevel where           % If level not equal to 1 then
{pop languagelevel             % set strokeadjust and
1 ne                           % overprint to their defaults.
{false setstrokeadjust false setoverprint
} if
} if
} bd
/EndEPSF { %def
count op_count sub {pop} repeat            % Clean up stacks
countdictstack dict_count sub {end} repeat
b4_Inc_state restore
} bd
%%EndResource
%FOPBeginFontDict
%%IncludeResource: font Courier-Bold
%%IncludeResource: font Helvetica
%%IncludeResource: font Courier-BoldOblique
%%IncludeResource: font Courier-Oblique
%%IncludeResource: font Times-Roman
%%IncludeResource: font Helvetica-BoldOblique
%%IncludeResource: font Helvetica-Bold
%%IncludeResource: font Helvetica-Oblique
%%IncludeResource: font Times-BoldItalic
%%IncludeResource: font Courier
%%IncludeResource: font Times-Italic
%%IncludeResource: font Times-Bold
%%IncludeResource: font Symbol
%%IncludeResource: font ZapfDingbats
%FOPEndFontDict
%%BeginResource: encoding WinAnsiEncoding
/WinAnsiEncoding [
/.notdef /.notdef /.notdef /.notdef /.notdef
/.notdef /.notdef /.notdef /.notdef /.notdef
/.notdef /.notdef /.notdef /.notdef /.notdef
/.notdef /.notdef /.notdef /.notdef /.notdef
/.notdef /.notdef /.notdef /.notdef /.notdef
/.notdef /.notdef /.notdef /.notdef /.notdef
/.notdef /.notdef /space /exclam /quotedbl
/numbersign /dollar /percent /ampersand /quotesingle
/parenleft /parenright /asterisk /plus /comma
/hyphen /period /slash /zero /one
/two /three /four /five /six
/seven /eight /nine /colon /semicolon
/less /equal /greater /question /at
/A /B /C /D /E
/F /G /H /I /J
/K /L /M /N /O
/P /Q /R /S /T
/U /V /W /X /Y
/Z /bracketleft /backslash /bracketright /asciicircum
/underscore /quoteleft /a /b /c
/d /e /f /g /h
/i /j /k /l /m
/n /o /p /q /r
/s /t /u /v /w
/x /y /z /braceleft /bar
/braceright /asciitilde /bullet /Euro /bullet
/quotesinglbase /florin /quotedblbase /ellipsis /dagger
/daggerdbl /circumflex /perthousand /Scaron /guilsinglleft
/OE /bullet /Zcaron /bullet /bullet
/quoteleft /quoteright /quotedblleft /quotedblright /bullet
/endash /emdash /asciitilde /trademark /scaron
/guilsinglright /oe /bullet /zcaron /Ydieresis
/space /exclamdown /cent /sterling /currency
/yen /brokenbar /section /dieresis /copyright
/ordfeminine /guillemotleft /logicalnot /sfthyphen /registered
/macron /degree /plusminus /twosuperior /threesuperior
/acute /mu /paragraph /middot /cedilla
/onesuperior /ordmasculine /guillemotright /onequarter /onehalf
/threequarters /questiondown /Agrave /Aacute /Acircumflex
/Atilde /Adieresis /Aring /AE /Ccedilla
/Egrave /Eacute /Ecircumflex /Edieresis /Igrave
/Iacute /Icircumflex /Idieresis /Eth /Ntilde
/Ograve /Oacute /Ocircumflex /Otilde /Odieresis
/multiply /Oslash /Ugrave /Uacute /Ucircumflex
/Udieresis /Yacute /Thorn /germandbls /agrave
/aacute /acircumflex /atilde /adieresis /aring
/ae /ccedilla /egrave /eacute /ecircumflex
/edieresis /igrave /iacute /icircumflex /idieresis
/eth /ntilde /ograve /oacute /ocircumflex
/otilde /odieresis /divide /oslash /ugrave
/uacute /ucircumflex /udieresis /yacute /thorn
/ydieresis
] def
%%EndResource
%FOPBeginFontReencode
/Courier-Bold findfont
dup length dict begin
  {1 index /FID ne {def} {pop pop} ifelse} forall
  /Encoding WinAnsiEncoding def
  currentdict
end
/Courier-Bold exch definefont pop
/Helvetica findfont
dup length dict begin
  {1 index /FID ne {def} {pop pop} ifelse} forall
  /Encoding WinAnsiEncoding def
  currentdict
end
/Helvetica exch definefont pop
/Courier-BoldOblique findfont
dup length dict begin
  {1 index /FID ne {def} {pop pop} ifelse} forall
  /Encoding WinAnsiEncoding def
  currentdict
end
/Courier-BoldOblique exch definefont pop
/Courier-Oblique findfont
dup length dict begin
  {1 index /FID ne {def} {pop pop} ifelse} forall
  /Encoding WinAnsiEncoding def
  currentdict
end
/Courier-Oblique exch definefont pop
/Times-Roman findfont
dup length dict begin
  {1 index /FID ne {def} {pop pop} ifelse} forall
  /Encoding WinAnsiEncoding def
  currentdict
end
/Times-Roman exch definefont pop
/Helvetica-BoldOblique findfont
dup length dict begin
  {1 index /FID ne {def} {pop pop} ifelse} forall
  /Encoding WinAnsiEncoding def
  currentdict
end
/Helvetica-BoldOblique exch definefont pop
/Helvetica-Bold findfont
dup length dict begin
  {1 index /FID ne {def} {pop pop} ifelse} forall
  /Encoding WinAnsiEncoding def
  currentdict
end
/Helvetica-Bold exch definefont pop
/Helvetica-Oblique findfont
dup length dict begin
  {1 index /FID ne {def} {pop pop} ifelse} forall
  /Encoding WinAnsiEncoding def
  currentdict
end
/Helvetica-Oblique exch definefont pop
/Times-BoldItalic findfont
dup length dict begin
  {1 index /FID ne {def} {pop pop} ifelse} forall
  /Encoding WinAnsiEncoding def
  currentdict
end
/Times-BoldItalic exch definefont pop
/Courier findfont
dup length dict begin
  {1 index /FID ne {def} {pop pop} ifelse} forall
  /Encoding WinAnsiEncoding def
  currentdict
end
/Courier exch definefont pop
/Times-Italic findfont
dup length dict begin
  {1 index /FID ne {def} {pop pop} ifelse} forall
  /Encoding WinAnsiEncoding def
  currentdict
end
/Times-Italic exch definefont pop
/Times-Bold findfont
dup length dict begin
  {1 index /FID ne {def} {pop pop} ifelse} forall
  /Encoding WinAnsiEncoding def
  currentdict
end
/Times-Bold exch definefont pop
%FOPEndFontReencode
%%EndProlog
%%Page: 1 1
%%PageBoundingBox: 0 0 420 315
%%BeginPageSetup
[1 0 0 -1 0 315] CT
%%EndPageSetup
GS
[0.75 0 0 0.75 0 0] CT
1 GC
N
0 0 560 420 re
f
GR
GS
[0.75 0 0 0.75 0 0] CT
1 GC
N
0 0 560 420 re
f
GR
GS
[0.75 0 0 0.75 0 0] CT
1 GC
N
73 273 M
507 273 L
507 26 L
73 26 L
cp
f
GR
GS
[0.75 0 0 0.75 217.50016 223.24999] CT
0.149 GC
/Helvetica 15 F
GS
[1 0 0 1 0 0] CT
-5 17 moveto 
1 -1 scale
(n) t 
GR
GR
GS
[0.75 0 0 0.75 0 0] CT
0.149 GC
2 setlinecap
10.0 ML
N
73 273 M
507 273 L
S
GR
GS
[0.75 0 0 0.75 0 0] CT
0.149 GC
2 setlinecap
10.0 ML
N
73 273 M
73 268.66 L
S
GR
GS
[0.75 0 0 0.75 0 0] CT
0.149 GC
2 setlinecap
10.0 ML
N
116.4 273 M
116.4 268.66 L
S
GR
GS
[0.75 0 0 0.75 0 0] CT
0.149 GC
2 setlinecap
10.0 ML
N
159.8 273 M
159.8 268.66 L
S
GR
GS
[0.75 0 0 0.75 0 0] CT
0.149 GC
2 setlinecap
10.0 ML
N
203.2 273 M
203.2 268.66 L
S
GR
GS
[0.75 0 0 0.75 0 0] CT
0.149 GC
2 setlinecap
10.0 ML
N
246.6 273 M
246.6 268.66 L
S
GR
GS
[0.75 0 0 0.75 0 0] CT
0.149 GC
2 setlinecap
10.0 ML
N
290 273 M
290 268.66 L
S
GR
GS
[0.75 0 0 0.75 0 0] CT
0.149 GC
2 setlinecap
10.0 ML
N
333.4 273 M
333.4 268.66 L
S
GR
GS
[0.75 0 0 0.75 0 0] CT
0.149 GC
2 setlinecap
10.0 ML
N
376.8 273 M
376.8 268.66 L
S
GR
GS
[0.75 0 0 0.75 0 0] CT
0.149 GC
2 setlinecap
10.0 ML
N
420.2 273 M
420.2 268.66 L
S
GR
GS
[0.75 0 0 0.75 0 0] CT
0.149 GC
2 setlinecap
10.0 ML
N
463.6 273 M
463.6 268.66 L
S
GR
GS
[0.75 0 0 0.75 0 0] CT
0.149 GC
2 setlinecap
10.0 ML
N
507 273 M
507 268.66 L
S
GR
GS
[0.75 0 0 0.75 54.75 208.75001] CT
0.149 GC
/Helvetica 13 F
GS
[1 0 0 1 0 0] CT
-7.5 14 moveto 
1 -1 scale
(10) t 
GR
GR
GS
[0.75 0 0 0.75 87.3 208.75001] CT
0.149 GC
/Helvetica 13 F
GS
[1 0 0 1 0 0] CT
-7.5 14 moveto 
1 -1 scale
(12) t 
GR
GR
GS
[0.75 0 0 0.75 119.85 208.75001] CT
0.149 GC
/Helvetica 13 F
GS
[1 0 0 1 0 0] CT
-7.5 14 moveto 
1 -1 scale
(14) t 
GR
GR
GS
[0.75 0 0 0.75 152.40001 208.75001] CT
0.149 GC
/Helvetica 13 F
GS
[1 0 0 1 0 0] CT
-7.5 14 moveto 
1 -1 scale
(16) t 
GR
GR
GS
[0.75 0 0 0.75 184.95 208.75001] CT
0.149 GC
/Helvetica 13 F
GS
[1 0 0 1 0 0] CT
-7.5 14 moveto 
1 -1 scale
(18) t 
GR
GR
GS
[0.75 0 0 0.75 217.5 208.75001] CT
0.149 GC
/Helvetica 13 F
GS
[1 0 0 1 0 0] CT
-7.5 14 moveto 
1 -1 scale
(20) t 
GR
GR
GS
[0.75 0 0 0.75 250.05002 208.75001] CT
0.149 GC
/Helvetica 13 F
GS
[1 0 0 1 0 0] CT
-7.5 14 moveto 
1 -1 scale
(22) t 
GR
GR
GS
[0.75 0 0 0.75 282.59999 208.75001] CT
0.149 GC
/Helvetica 13 F
GS
[1 0 0 1 0 0] CT
-7.5 14 moveto 
1 -1 scale
(24) t 
GR
GR
GS
[0.75 0 0 0.75 315.15001 208.75001] CT
0.149 GC
/Helvetica 13 F
GS
[1 0 0 1 0 0] CT
-7.5 14 moveto 
1 -1 scale
(26) t 
GR
GR
GS
[0.75 0 0 0.75 347.69998 208.75001] CT
0.149 GC
/Helvetica 13 F
GS
[1 0 0 1 0 0] CT
-7.5 14 moveto 
1 -1 scale
(28) t 
GR
GR
GS
[0.75 0 0 0.75 380.25 208.75001] CT
0.149 GC
/Helvetica 13 F
GS
[1 0 0 1 0 0] CT
-7.5 14 moveto 
1 -1 scale
(30) t 
GR
GR
GS
[0 -0.75 0.75 0 21 117.75] CT
0.149 GC
/Helvetica 15 F
GS
[1 0 0 1 0 0] CT
0 0 moveto 
1 -1 scale
(E) t 
GR
GR
GS
[0 -0.75 0.75 0 26.25 111] CT
0.149 GC
/Helvetica 11 F
GS
[1 0 0 1 0 0] CT
0 0 moveto 
1 -1 scale
(n) t 
GR
GR
GS
[0.75 0 0 0.75 0 0] CT
0.149 GC
2 setlinecap
10.0 ML
N
73 273 M
73 26 L
S
GR
GS
[0.75 0 0 0.75 0 0] CT
0.149 GC
2 setlinecap
10.0 ML
N
73 273 M
77.34 273 L
S
GR
GS
[0.75 0 0 0.75 0 0] CT
0.149 GC
2 setlinecap
10.0 ML
N
73 190.667 M
77.34 190.667 L
S
GR
GS
[0.75 0 0 0.75 0 0] CT
0.149 GC
2 setlinecap
10.0 ML
N
73 108.333 M
77.34 108.333 L
S
GR
GS
[0.75 0 0 0.75 0 0] CT
0.149 GC
2 setlinecap
10.0 ML
N
73 26 M
77.34 26 L
S
GR
GS
[0.75 0 0 0.75 32.25 210] CT
0.149 GC
/Helvetica 13 F
GS
[1 0 0 1 0 0] CT
0 0 moveto 
1 -1 scale
(10) t 
GR
GR
GS
[0.75 0 0 0.75 43.5 205.5] CT
0.149 GC
/Helvetica 11 F
GS
[1 0 0 1 0 0] CT
0 0 moveto 
1 -1 scale
(-2) t 
GR
GR
GS
[0.75 0 0 0.75 34.5 148.5] CT
0.149 GC
/Helvetica 13 F
GS
[1 0 0 1 0 0] CT
0 0 moveto 
1 -1 scale
(10) t 
GR
GR
GS
[0.75 0 0 0.75 45.75 144] CT
0.149 GC
/Helvetica 11 F
GS
[1 0 0 1 0 0] CT
0 0 moveto 
1 -1 scale
(0) t 
GR
GR
GS
[0.75 0 0 0.75 34.5 86.25] CT
0.149 GC
/Helvetica 13 F
GS
[1 0 0 1 0 0] CT
0 0 moveto 
1 -1 scale
(10) t 
GR
GR
GS
[0.75 0 0 0.75 45.75 81.75] CT
0.149 GC
/Helvetica 11 F
GS
[1 0 0 1 0 0] CT
0 0 moveto 
1 -1 scale
(2) t 
GR
GR
GS
[0.75 0 0 0.75 34.5 24.75] CT
0.149 GC
/Helvetica 13 F
GS
[1 0 0 1 0 0] CT
0 0 moveto 
1 -1 scale
(10) t 
GR
GR
GS
[0.75 0 0 0.75 45.75 20.25] CT
0.149 GC
/Helvetica 11 F
GS
[1 0 0 1 0 0] CT
0 0 moveto 
1 -1 scale
(4) t 
GR
GR
GS
[0.75 0 0 0.75 0 0] CT
0 0.447 0.741 RC
2 setlinecap
10.0 ML
N
73 251.813 M
94.7 255.394 L
116.4 268.558 L
138.1 244.327 L
159.8 215.901 L
181.5 197.056 L
203.2 181.721 L
224.9 168.625 L
246.6 157.448 L
268.3 148.246 L
290 136.865 L
311.7 127.106 L
333.4 119.352 L
355.1 114.316 L
376.8 114.418 L
398.5 94.865 L
420.2 79.475 L
441.9 66.53 L
463.6 55.134 L
485.3 44.806 L
507 33.477 L
S
GR
GS
[0.75 0 0 0.75 0 0] CT
0 0.447 0.741 RC
2 setlinecap
10.0 ML
N
77.5 251.5 M
76.736 249.149 L
74.736 247.696 L
72.264 247.696 L
70.264 249.149 L
69.5 251.5 L
70.264 253.851 L
72.264 255.304 L
74.736 255.304 L
76.736 253.851 L
77.5 251.5 L
S
GR
GS
[0.75 0 0 0.75 0 0] CT
0 0.447 0.741 RC
2 setlinecap
10.0 ML
N
98.5 255.5 M
97.736 253.149 L
95.736 251.696 L
93.264 251.696 L
91.264 253.149 L
90.5 255.5 L
91.264 257.851 L
93.264 259.304 L
95.736 259.304 L
97.736 257.851 L
98.5 255.5 L
S
GR
GS
[0.75 0 0 0.75 0 0] CT
0 0.447 0.741 RC
2 setlinecap
10.0 ML
N
120.5 268.5 M
119.736 266.149 L
117.736 264.696 L
115.264 264.696 L
113.264 266.149 L
112.5 268.5 L
113.264 270.851 L
115.264 272.304 L
117.736 272.304 L
119.736 270.851 L
120.5 268.5 L
S
GR
GS
[0.75 0 0 0.75 0 0] CT
0 0.447 0.741 RC
2 setlinecap
10.0 ML
N
142.5 244.5 M
141.736 242.149 L
139.736 240.696 L
137.264 240.696 L
135.264 242.149 L
134.5 244.5 L
135.264 246.851 L
137.264 248.304 L
139.736 248.304 L
141.736 246.851 L
142.5 244.5 L
S
GR
GS
[0.75 0 0 0.75 0 0] CT
0 0.447 0.741 RC
2 setlinecap
10.0 ML
N
163.5 215.5 M
162.736 213.149 L
160.736 211.696 L
158.264 211.696 L
156.264 213.149 L
155.5 215.5 L
156.264 217.851 L
158.264 219.304 L
160.736 219.304 L
162.736 217.851 L
163.5 215.5 L
S
GR
GS
[0.75 0 0 0.75 0 0] CT
0 0.447 0.741 RC
2 setlinecap
10.0 ML
N
185.5 197.5 M
184.736 195.149 L
182.736 193.696 L
180.264 193.696 L
178.264 195.149 L
177.5 197.5 L
178.264 199.851 L
180.264 201.304 L
182.736 201.304 L
184.736 199.851 L
185.5 197.5 L
S
GR
GS
[0.75 0 0 0.75 0 0] CT
0 0.447 0.741 RC
2 setlinecap
10.0 ML
N
207.5 181.5 M
206.736 179.149 L
204.736 177.696 L
202.264 177.696 L
200.264 179.149 L
199.5 181.5 L
200.264 183.851 L
202.264 185.304 L
204.736 185.304 L
206.736 183.851 L
207.5 181.5 L
S
GR
GS
[0.75 0 0 0.75 0 0] CT
0 0.447 0.741 RC
2 setlinecap
10.0 ML
N
228.5 168.5 M
227.736 166.149 L
225.736 164.696 L
223.264 164.696 L
221.264 166.149 L
220.5 168.5 L
221.264 170.851 L
223.264 172.304 L
225.736 172.304 L
227.736 170.851 L
228.5 168.5 L
S
GR
GS
[0.75 0 0 0.75 0 0] CT
0 0.447 0.741 RC
2 setlinecap
10.0 ML
N
250.5 157.5 M
249.736 155.149 L
247.736 153.696 L
245.264 153.696 L
243.264 155.149 L
242.5 157.5 L
243.264 159.851 L
245.264 161.304 L
247.736 161.304 L
249.736 159.851 L
250.5 157.5 L
S
GR
GS
[0.75 0 0 0.75 0 0] CT
0 0.447 0.741 RC
2 setlinecap
10.0 ML
N
272.5 148.5 M
271.736 146.149 L
269.736 144.696 L
267.264 144.696 L
265.264 146.149 L
264.5 148.5 L
265.264 150.851 L
267.264 152.304 L
269.736 152.304 L
271.736 150.851 L
272.5 148.5 L
S
GR
GS
[0.75 0 0 0.75 0 0] CT
0 0.447 0.741 RC
2 setlinecap
10.0 ML
N
294.5 136.5 M
293.736 134.149 L
291.736 132.696 L
289.264 132.696 L
287.264 134.149 L
286.5 136.5 L
287.264 138.851 L
289.264 140.304 L
291.736 140.304 L
293.736 138.851 L
294.5 136.5 L
S
GR
GS
[0.75 0 0 0.75 0 0] CT
0 0.447 0.741 RC
2 setlinecap
10.0 ML
N
315.5 127.5 M
314.736 125.149 L
312.736 123.696 L
310.264 123.696 L
308.264 125.149 L
307.5 127.5 L
308.264 129.851 L
310.264 131.304 L
312.736 131.304 L
314.736 129.851 L
315.5 127.5 L
S
GR
GS
[0.75 0 0 0.75 0 0] CT
0 0.447 0.741 RC
2 setlinecap
10.0 ML
N
337.5 119.5 M
336.736 117.149 L
334.736 115.696 L
332.264 115.696 L
330.264 117.149 L
329.5 119.5 L
330.264 121.851 L
332.264 123.304 L
334.736 123.304 L
336.736 121.851 L
337.5 119.5 L
S
GR
GS
[0.75 0 0 0.75 0 0] CT
0 0.447 0.741 RC
2 setlinecap
10.0 ML
N
359.5 114.5 M
358.736 112.149 L
356.736 110.696 L
354.264 110.696 L
352.264 112.149 L
351.5 114.5 L
352.264 116.851 L
354.264 118.304 L
356.736 118.304 L
358.736 116.851 L
359.5 114.5 L
S
GR
GS
[0.75 0 0 0.75 0 0] CT
0 0.447 0.741 RC
2 setlinecap
10.0 ML
N
380.5 114.5 M
379.736 112.149 L
377.736 110.696 L
375.264 110.696 L
373.264 112.149 L
372.5 114.5 L
373.264 116.851 L
375.264 118.304 L
377.736 118.304 L
379.736 116.851 L
380.5 114.5 L
S
GR
GS
[0.75 0 0 0.75 0 0] CT
0 0.447 0.741 RC
2 setlinecap
10.0 ML
N
402.5 94.5 M
401.736 92.149 L
399.736 90.696 L
397.264 90.696 L
395.264 92.149 L
394.5 94.5 L
395.264 96.851 L
397.264 98.304 L
399.736 98.304 L
401.736 96.851 L
402.5 94.5 L
S
GR
GS
[0.75 0 0 0.75 0 0] CT
0 0.447 0.741 RC
2 setlinecap
10.0 ML
N
424.5 79.5 M
423.736 77.149 L
421.736 75.696 L
419.264 75.696 L
417.264 77.149 L
416.5 79.5 L
417.264 81.851 L
419.264 83.304 L
421.736 83.304 L
423.736 81.851 L
424.5 79.5 L
S
GR
GS
[0.75 0 0 0.75 0 0] CT
0 0.447 0.741 RC
2 setlinecap
10.0 ML
N
445.5 66.5 M
444.736 64.149 L
442.736 62.696 L
440.264 62.696 L
438.264 64.149 L
437.5 66.5 L
438.264 68.851 L
440.264 70.304 L
442.736 70.304 L
444.736 68.851 L
445.5 66.5 L
S
GR
GS
[0.75 0 0 0.75 0 0] CT
0 0.447 0.741 RC
2 setlinecap
10.0 ML
N
467.5 55.5 M
466.736 53.149 L
464.736 51.696 L
462.264 51.696 L
460.264 53.149 L
459.5 55.5 L
460.264 57.851 L
462.264 59.304 L
464.736 59.304 L
466.736 57.851 L
467.5 55.5 L
S
GR
GS
[0.75 0 0 0.75 0 0] CT
0 0.447 0.741 RC
2 setlinecap
10.0 ML
N
489.5 44.5 M
488.736 42.149 L
486.736 40.696 L
484.264 40.696 L
482.264 42.149 L
481.5 44.5 L
482.264 46.851 L
484.264 48.304 L
486.736 48.304 L
488.736 46.851 L
489.5 44.5 L
S
GR
GS
[0.75 0 0 0.75 0 0] CT
0 0.447 0.741 RC
2 setlinecap
10.0 ML
N
511.5 33.5 M
510.736 31.149 L
508.736 29.696 L
506.264 29.696 L
504.264 31.149 L
503.5 33.5 L
504.264 35.851 L
506.264 37.304 L
508.736 37.304 L
510.736 35.851 L
511.5 33.5 L
S
GR
GS
[0.75 0 0 0.75 0 0] CT
0.851 0.325 0.098 RC
2 setlinecap
10.0 ML
N
73 266.98 M
94.7 265.468 L
116.4 266.241 L
138.1 266.261 L
159.8 265.201 L
181.5 263.833 L
203.2 263.561 L
224.9 264.257 L
246.6 264.356 L
268.3 264.451 L
290 264.627 L
311.7 264.174 L
333.4 263.7 L
355.1 263.785 L
376.8 263.901 L
398.5 263.943 L
420.2 263.936 L
441.9 263.82 L
463.6 263.753 L
485.3 263.627 L
507 263.504 L
S
GR
GS
[0.75 0 0 0.75 0 0] CT
0.851 0.325 0.098 RC
2 setlinecap
10.0 ML
N
77.5 266.5 M
76.736 264.149 L
74.736 262.696 L
72.264 262.696 L
70.264 264.149 L
69.5 266.5 L
70.264 268.851 L
72.264 270.304 L
74.736 270.304 L
76.736 268.851 L
77.5 266.5 L
S
GR
GS
[0.75 0 0 0.75 0 0] CT
0.851 0.325 0.098 RC
2 setlinecap
10.0 ML
N
98.5 265.5 M
97.736 263.149 L
95.736 261.696 L
93.264 261.696 L
91.264 263.149 L
90.5 265.5 L
91.264 267.851 L
93.264 269.304 L
95.736 269.304 L
97.736 267.851 L
98.5 265.5 L
S
GR
GS
[0.75 0 0 0.75 0 0] CT
0.851 0.325 0.098 RC
2 setlinecap
10.0 ML
N
120.5 266.5 M
119.736 264.149 L
117.736 262.696 L
115.264 262.696 L
113.264 264.149 L
112.5 266.5 L
113.264 268.851 L
115.264 270.304 L
117.736 270.304 L
119.736 268.851 L
120.5 266.5 L
S
GR
GS
[0.75 0 0 0.75 0 0] CT
0.851 0.325 0.098 RC
2 setlinecap
10.0 ML
N
142.5 266.5 M
141.736 264.149 L
139.736 262.696 L
137.264 262.696 L
135.264 264.149 L
134.5 266.5 L
135.264 268.851 L
137.264 270.304 L
139.736 270.304 L
141.736 268.851 L
142.5 266.5 L
S
GR
GS
[0.75 0 0 0.75 0 0] CT
0.851 0.325 0.098 RC
2 setlinecap
10.0 ML
N
163.5 265.5 M
162.736 263.149 L
160.736 261.696 L
158.264 261.696 L
156.264 263.149 L
155.5 265.5 L
156.264 267.851 L
158.264 269.304 L
160.736 269.304 L
162.736 267.851 L
163.5 265.5 L
S
GR
GS
[0.75 0 0 0.75 0 0] CT
0.851 0.325 0.098 RC
2 setlinecap
10.0 ML
N
185.5 263.5 M
184.736 261.149 L
182.736 259.696 L
180.264 259.696 L
178.264 261.149 L
177.5 263.5 L
178.264 265.851 L
180.264 267.304 L
182.736 267.304 L
184.736 265.851 L
185.5 263.5 L
S
GR
GS
[0.75 0 0 0.75 0 0] CT
0.851 0.325 0.098 RC
2 setlinecap
10.0 ML
N
207.5 263.5 M
206.736 261.149 L
204.736 259.696 L
202.264 259.696 L
200.264 261.149 L
199.5 263.5 L
200.264 265.851 L
202.264 267.304 L
204.736 267.304 L
206.736 265.851 L
207.5 263.5 L
S
GR
GS
[0.75 0 0 0.75 0 0] CT
0.851 0.325 0.098 RC
2 setlinecap
10.0 ML
N
228.5 264.5 M
227.736 262.149 L
225.736 260.696 L
223.264 260.696 L
221.264 262.149 L
220.5 264.5 L
221.264 266.851 L
223.264 268.304 L
225.736 268.304 L
227.736 266.851 L
228.5 264.5 L
S
GR
GS
[0.75 0 0 0.75 0 0] CT
0.851 0.325 0.098 RC
2 setlinecap
10.0 ML
N
250.5 264.5 M
249.736 262.149 L
247.736 260.696 L
245.264 260.696 L
243.264 262.149 L
242.5 264.5 L
243.264 266.851 L
245.264 268.304 L
247.736 268.304 L
249.736 266.851 L
250.5 264.5 L
S
GR
GS
[0.75 0 0 0.75 0 0] CT
0.851 0.325 0.098 RC
2 setlinecap
10.0 ML
N
272.5 264.5 M
271.736 262.149 L
269.736 260.696 L
267.264 260.696 L
265.264 262.149 L
264.5 264.5 L
265.264 266.851 L
267.264 268.304 L
269.736 268.304 L
271.736 266.851 L
272.5 264.5 L
S
GR
GS
[0.75 0 0 0.75 0 0] CT
0.851 0.325 0.098 RC
2 setlinecap
10.0 ML
N
294.5 264.5 M
293.736 262.149 L
291.736 260.696 L
289.264 260.696 L
287.264 262.149 L
286.5 264.5 L
287.264 266.851 L
289.264 268.304 L
291.736 268.304 L
293.736 266.851 L
294.5 264.5 L
S
GR
GS
[0.75 0 0 0.75 0 0] CT
0.851 0.325 0.098 RC
2 setlinecap
10.0 ML
N
315.5 264.5 M
314.736 262.149 L
312.736 260.696 L
310.264 260.696 L
308.264 262.149 L
307.5 264.5 L
308.264 266.851 L
310.264 268.304 L
312.736 268.304 L
314.736 266.851 L
315.5 264.5 L
S
GR
GS
[0.75 0 0 0.75 0 0] CT
0.851 0.325 0.098 RC
2 setlinecap
10.0 ML
N
337.5 263.5 M
336.736 261.149 L
334.736 259.696 L
332.264 259.696 L
330.264 261.149 L
329.5 263.5 L
330.264 265.851 L
332.264 267.304 L
334.736 267.304 L
336.736 265.851 L
337.5 263.5 L
S
GR
GS
[0.75 0 0 0.75 0 0] CT
0.851 0.325 0.098 RC
2 setlinecap
10.0 ML
N
359.5 263.5 M
358.736 261.149 L
356.736 259.696 L
354.264 259.696 L
352.264 261.149 L
351.5 263.5 L
352.264 265.851 L
354.264 267.304 L
356.736 267.304 L
358.736 265.851 L
359.5 263.5 L
S
GR
GS
[0.75 0 0 0.75 0 0] CT
0.851 0.325 0.098 RC
2 setlinecap
10.0 ML
N
380.5 263.5 M
379.736 261.149 L
377.736 259.696 L
375.264 259.696 L
373.264 261.149 L
372.5 263.5 L
373.264 265.851 L
375.264 267.304 L
377.736 267.304 L
379.736 265.851 L
380.5 263.5 L
S
GR
GS
[0.75 0 0 0.75 0 0] CT
0.851 0.325 0.098 RC
2 setlinecap
10.0 ML
N
402.5 263.5 M
401.736 261.149 L
399.736 259.696 L
397.264 259.696 L
395.264 261.149 L
394.5 263.5 L
395.264 265.851 L
397.264 267.304 L
399.736 267.304 L
401.736 265.851 L
402.5 263.5 L
S
GR
GS
[0.75 0 0 0.75 0 0] CT
0.851 0.325 0.098 RC
2 setlinecap
10.0 ML
N
424.5 263.5 M
423.736 261.149 L
421.736 259.696 L
419.264 259.696 L
417.264 261.149 L
416.5 263.5 L
417.264 265.851 L
419.264 267.304 L
421.736 267.304 L
423.736 265.851 L
424.5 263.5 L
S
GR
GS
[0.75 0 0 0.75 0 0] CT
0.851 0.325 0.098 RC
2 setlinecap
10.0 ML
N
445.5 263.5 M
444.736 261.149 L
442.736 259.696 L
440.264 259.696 L
438.264 261.149 L
437.5 263.5 L
438.264 265.851 L
440.264 267.304 L
442.736 267.304 L
444.736 265.851 L
445.5 263.5 L
S
GR
GS
[0.75 0 0 0.75 0 0] CT
0.851 0.325 0.098 RC
2 setlinecap
10.0 ML
N
467.5 263.5 M
466.736 261.149 L
464.736 259.696 L
462.264 259.696 L
460.264 261.149 L
459.5 263.5 L
460.264 265.851 L
462.264 267.304 L
464.736 267.304 L
466.736 265.851 L
467.5 263.5 L
S
GR
GS
[0.75 0 0 0.75 0 0] CT
0.851 0.325 0.098 RC
2 setlinecap
10.0 ML
N
489.5 263.5 M
488.736 261.149 L
486.736 259.696 L
484.264 259.696 L
482.264 261.149 L
481.5 263.5 L
482.264 265.851 L
484.264 267.304 L
486.736 267.304 L
488.736 265.851 L
489.5 263.5 L
S
GR
GS
[0.75 0 0 0.75 0 0] CT
0.851 0.325 0.098 RC
2 setlinecap
10.0 ML
N
511.5 263.5 M
510.736 261.149 L
508.736 259.696 L
506.264 259.696 L
504.264 261.149 L
503.5 263.5 L
504.264 265.851 L
506.264 267.304 L
508.736 267.304 L
510.736 265.851 L
511.5 263.5 L
S
GR
GS
[0.75 0 0 0.75 217.50021 17.43751] CT
/Helvetica-Bold 15 F
GS
[1 0 0 1 0 0] CT
-76 -5 moveto 
1 -1 scale
(Comparison of error) t 
GR
GR
GS
[0.75 0 0 0.75 0 0] CT
1 GC
N
189 373 M
189 333 L
391 333 L
391 373 L
cp
f
GR
GS
[0.75 0 0 0.75 180.55788 258.12499] CT
/Helvetica 12 F
GS
[1 0 0 1 0 0] CT
0 4.5 moveto 
1 -1 scale
(Equidistant) t 
GR
GR
GS
[0.75 0 0 0.75 0 0] CT
0 0.447 0.741 RC
2 setlinecap
10.0 ML
N
196.961 344.167 M
236.764 344.167 L
S
GR
GS
[0.75 0 0 0.75 0 0] CT
0 0.447 0.741 RC
2 setlinecap
10.0 ML
N
220.5 344.5 M
219.736 342.149 L
217.736 340.696 L
215.264 340.696 L
213.264 342.149 L
212.5 344.5 L
213.264 346.851 L
215.264 348.304 L
217.736 348.304 L
219.736 346.851 L
220.5 344.5 L
S
GR
GS
[0.75 0 0 0.75 180.55788 271.37501] CT
/Helvetica 12 F
GS
[1 0 0 1 0 0] CT
0 4.5 moveto 
1 -1 scale
(Chebyshev-Gauss-Lobatto) t 
GR
GR
GS
[0.75 0 0 0.75 0 0] CT
0.851 0.325 0.098 RC
2 setlinecap
10.0 ML
N
196.961 361.833 M
236.764 361.833 L
S
GR
GS
[0.75 0 0 0.75 0 0] CT
0.851 0.325 0.098 RC
2 setlinecap
10.0 ML
N
220.5 361.5 M
219.736 359.149 L
217.736 357.696 L
215.264 357.696 L
213.264 359.149 L
212.5 361.5 L
213.264 363.851 L
215.264 365.304 L
217.736 365.304 L
219.736 363.851 L
220.5 361.5 L
S
GR
GS
[0.75 0 0 0.75 0 0] CT
0.149 GC
2 setlinecap
10.0 ML
N
189 373 M
189 333 L
391 333 L
391 373 L
189 373 L
S
GR
%%Trailer
%%Pages: 1
%%EOF
