%!PS-Adobe-3.0 EPSF-3.0
%%Creator: (MATLAB, The Mathworks, Inc. Version 8.5.0.197613 \(R2015a\). Operating System: Linux)
%%Title: /home/han/Projects/NumericalMaths/NM1_LAB_5/report/images/logxexpx.eps
%%CreationDate: 2016-05-24T10:10:26
%%Pages: (atend)
%%BoundingBox: 0 0 420 315
%%LanguageLevel: 2
%%EndComments
%%BeginProlog
%%BeginResource: procset (Apache XML Graphics Std ProcSet) 1.2 0
%%Version: 1.2 0
%%Copyright: (Copyright 2001-2003,2010 The Apache Software Foundation. License terms: http://www.apache.org/licenses/LICENSE-2.0)
/bd{bind def}bind def
/ld{load def}bd
/GR/grestore ld
/M/moveto ld
/LJ/setlinejoin ld
/C/curveto ld
/f/fill ld
/LW/setlinewidth ld
/GC/setgray ld
/t/show ld
/N/newpath ld
/CT/concat ld
/cp/closepath ld
/S/stroke ld
/L/lineto ld
/CC/setcmykcolor ld
/A/ashow ld
/GS/gsave ld
/RC/setrgbcolor ld
/RM/rmoveto ld
/ML/setmiterlimit ld
/re {4 2 roll M
1 index 0 rlineto
0 exch rlineto
neg 0 rlineto
cp } bd
/_ctm matrix def
/_tm matrix def
/BT { _ctm currentmatrix pop matrix _tm copy pop 0 0 moveto } bd
/ET { _ctm setmatrix } bd
/iTm { _ctm setmatrix _tm concat } bd
/Tm { _tm astore pop iTm 0 0 moveto } bd
/ux 0.0 def
/uy 0.0 def
/F {
  /Tp exch def
  /Tf exch def
  Tf findfont Tp scalefont setfont
  /cf Tf def  /cs Tp def
} bd
/ULS {currentpoint /uy exch def /ux exch def} bd
/ULE {
  /Tcx currentpoint pop def
  gsave
  newpath
  cf findfont cs scalefont dup
  /FontMatrix get 0 get /Ts exch def /FontInfo get dup
  /UnderlinePosition get Ts mul /To exch def
  /UnderlineThickness get Ts mul /Tt exch def
  ux uy To add moveto  Tcx uy To add lineto
  Tt setlinewidth stroke
  grestore
} bd
/OLE {
  /Tcx currentpoint pop def
  gsave
  newpath
  cf findfont cs scalefont dup
  /FontMatrix get 0 get /Ts exch def /FontInfo get dup
  /UnderlinePosition get Ts mul /To exch def
  /UnderlineThickness get Ts mul /Tt exch def
  ux uy To add cs add moveto Tcx uy To add cs add lineto
  Tt setlinewidth stroke
  grestore
} bd
/SOE {
  /Tcx currentpoint pop def
  gsave
  newpath
  cf findfont cs scalefont dup
  /FontMatrix get 0 get /Ts exch def /FontInfo get dup
  /UnderlinePosition get Ts mul /To exch def
  /UnderlineThickness get Ts mul /Tt exch def
  ux uy To add cs 10 mul 26 idiv add moveto Tcx uy To add cs 10 mul 26 idiv add lineto
  Tt setlinewidth stroke
  grestore
} bd
/QT {
/Y22 exch store
/X22 exch store
/Y21 exch store
/X21 exch store
currentpoint
/Y21 load 2 mul add 3 div exch
/X21 load 2 mul add 3 div exch
/X21 load 2 mul /X22 load add 3 div
/Y21 load 2 mul /Y22 load add 3 div
/X22 load /Y22 load curveto
} bd
/SSPD {
dup length /d exch dict def
{
/v exch def
/k exch def
currentpagedevice k known {
/cpdv currentpagedevice k get def
v cpdv ne {
/upd false def
/nullv v type /nulltype eq def
/nullcpdv cpdv type /nulltype eq def
nullv nullcpdv or
{
/upd true def
} {
/sametype v type cpdv type eq def
sametype {
v type /arraytype eq {
/vlen v length def
/cpdvlen cpdv length def
vlen cpdvlen eq {
0 1 vlen 1 sub {
/i exch def
/obj v i get def
/cpdobj cpdv i get def
obj cpdobj ne {
/upd true def
exit
} if
} for
} {
/upd true def
} ifelse
} {
v type /dicttype eq {
v {
/dv exch def
/dk exch def
/cpddv cpdv dk get def
dv cpddv ne {
/upd true def
exit
} if
} forall
} {
/upd true def
} ifelse
} ifelse
} if
} ifelse
upd true eq {
d k v put
} if
} if
} if
} forall
d length 0 gt {
d setpagedevice
} if
} bd
%%EndResource
%%BeginResource: procset (Apache XML Graphics EPS ProcSet) 1.0 0
%%Version: 1.0 0
%%Copyright: (Copyright 2002-2003 The Apache Software Foundation. License terms: http://www.apache.org/licenses/LICENSE-2.0)
/BeginEPSF { %def
/b4_Inc_state save def         % Save state for cleanup
/dict_count countdictstack def % Count objects on dict stack
/op_count count 1 sub def      % Count objects on operand stack
userdict begin                 % Push userdict on dict stack
/showpage { } def              % Redefine showpage, { } = null proc
0 setgray 0 setlinecap         % Prepare graphics state
1 setlinewidth 0 setlinejoin
10 setmiterlimit [ ] 0 setdash newpath
/languagelevel where           % If level not equal to 1 then
{pop languagelevel             % set strokeadjust and
1 ne                           % overprint to their defaults.
{false setstrokeadjust false setoverprint
} if
} if
} bd
/EndEPSF { %def
count op_count sub {pop} repeat            % Clean up stacks
countdictstack dict_count sub {end} repeat
b4_Inc_state restore
} bd
%%EndResource
%FOPBeginFontDict
%%IncludeResource: font Courier-Bold
%%IncludeResource: font Helvetica
%%IncludeResource: font Courier-BoldOblique
%%IncludeResource: font Courier-Oblique
%%IncludeResource: font Times-Roman
%%IncludeResource: font Helvetica-BoldOblique
%%IncludeResource: font Helvetica-Bold
%%IncludeResource: font Helvetica-Oblique
%%IncludeResource: font Times-BoldItalic
%%IncludeResource: font Courier
%%IncludeResource: font Times-Italic
%%IncludeResource: font Times-Bold
%%IncludeResource: font Symbol
%%IncludeResource: font ZapfDingbats
%FOPEndFontDict
%%BeginResource: encoding WinAnsiEncoding
/WinAnsiEncoding [
/.notdef /.notdef /.notdef /.notdef /.notdef
/.notdef /.notdef /.notdef /.notdef /.notdef
/.notdef /.notdef /.notdef /.notdef /.notdef
/.notdef /.notdef /.notdef /.notdef /.notdef
/.notdef /.notdef /.notdef /.notdef /.notdef
/.notdef /.notdef /.notdef /.notdef /.notdef
/.notdef /.notdef /space /exclam /quotedbl
/numbersign /dollar /percent /ampersand /quotesingle
/parenleft /parenright /asterisk /plus /comma
/hyphen /period /slash /zero /one
/two /three /four /five /six
/seven /eight /nine /colon /semicolon
/less /equal /greater /question /at
/A /B /C /D /E
/F /G /H /I /J
/K /L /M /N /O
/P /Q /R /S /T
/U /V /W /X /Y
/Z /bracketleft /backslash /bracketright /asciicircum
/underscore /quoteleft /a /b /c
/d /e /f /g /h
/i /j /k /l /m
/n /o /p /q /r
/s /t /u /v /w
/x /y /z /braceleft /bar
/braceright /asciitilde /bullet /Euro /bullet
/quotesinglbase /florin /quotedblbase /ellipsis /dagger
/daggerdbl /circumflex /perthousand /Scaron /guilsinglleft
/OE /bullet /Zcaron /bullet /bullet
/quoteleft /quoteright /quotedblleft /quotedblright /bullet
/endash /emdash /asciitilde /trademark /scaron
/guilsinglright /oe /bullet /zcaron /Ydieresis
/space /exclamdown /cent /sterling /currency
/yen /brokenbar /section /dieresis /copyright
/ordfeminine /guillemotleft /logicalnot /sfthyphen /registered
/macron /degree /plusminus /twosuperior /threesuperior
/acute /mu /paragraph /middot /cedilla
/onesuperior /ordmasculine /guillemotright /onequarter /onehalf
/threequarters /questiondown /Agrave /Aacute /Acircumflex
/Atilde /Adieresis /Aring /AE /Ccedilla
/Egrave /Eacute /Ecircumflex /Edieresis /Igrave
/Iacute /Icircumflex /Idieresis /Eth /Ntilde
/Ograve /Oacute /Ocircumflex /Otilde /Odieresis
/multiply /Oslash /Ugrave /Uacute /Ucircumflex
/Udieresis /Yacute /Thorn /germandbls /agrave
/aacute /acircumflex /atilde /adieresis /aring
/ae /ccedilla /egrave /eacute /ecircumflex
/edieresis /igrave /iacute /icircumflex /idieresis
/eth /ntilde /ograve /oacute /ocircumflex
/otilde /odieresis /divide /oslash /ugrave
/uacute /ucircumflex /udieresis /yacute /thorn
/ydieresis
] def
%%EndResource
%FOPBeginFontReencode
/Courier-Bold findfont
dup length dict begin
  {1 index /FID ne {def} {pop pop} ifelse} forall
  /Encoding WinAnsiEncoding def
  currentdict
end
/Courier-Bold exch definefont pop
/Helvetica findfont
dup length dict begin
  {1 index /FID ne {def} {pop pop} ifelse} forall
  /Encoding WinAnsiEncoding def
  currentdict
end
/Helvetica exch definefont pop
/Courier-BoldOblique findfont
dup length dict begin
  {1 index /FID ne {def} {pop pop} ifelse} forall
  /Encoding WinAnsiEncoding def
  currentdict
end
/Courier-BoldOblique exch definefont pop
/Courier-Oblique findfont
dup length dict begin
  {1 index /FID ne {def} {pop pop} ifelse} forall
  /Encoding WinAnsiEncoding def
  currentdict
end
/Courier-Oblique exch definefont pop
/Times-Roman findfont
dup length dict begin
  {1 index /FID ne {def} {pop pop} ifelse} forall
  /Encoding WinAnsiEncoding def
  currentdict
end
/Times-Roman exch definefont pop
/Helvetica-BoldOblique findfont
dup length dict begin
  {1 index /FID ne {def} {pop pop} ifelse} forall
  /Encoding WinAnsiEncoding def
  currentdict
end
/Helvetica-BoldOblique exch definefont pop
/Helvetica-Bold findfont
dup length dict begin
  {1 index /FID ne {def} {pop pop} ifelse} forall
  /Encoding WinAnsiEncoding def
  currentdict
end
/Helvetica-Bold exch definefont pop
/Helvetica-Oblique findfont
dup length dict begin
  {1 index /FID ne {def} {pop pop} ifelse} forall
  /Encoding WinAnsiEncoding def
  currentdict
end
/Helvetica-Oblique exch definefont pop
/Times-BoldItalic findfont
dup length dict begin
  {1 index /FID ne {def} {pop pop} ifelse} forall
  /Encoding WinAnsiEncoding def
  currentdict
end
/Times-BoldItalic exch definefont pop
/Courier findfont
dup length dict begin
  {1 index /FID ne {def} {pop pop} ifelse} forall
  /Encoding WinAnsiEncoding def
  currentdict
end
/Courier exch definefont pop
/Times-Italic findfont
dup length dict begin
  {1 index /FID ne {def} {pop pop} ifelse} forall
  /Encoding WinAnsiEncoding def
  currentdict
end
/Times-Italic exch definefont pop
/Times-Bold findfont
dup length dict begin
  {1 index /FID ne {def} {pop pop} ifelse} forall
  /Encoding WinAnsiEncoding def
  currentdict
end
/Times-Bold exch definefont pop
%FOPEndFontReencode
%%EndProlog
%%Page: 1 1
%%PageBoundingBox: 0 0 420 315
%%BeginPageSetup
[1 0 0 -1 0 315] CT
%%EndPageSetup
GS
[0.75 0 0 0.75 0 0] CT
1 GC
N
0 0 560 420 re
f
GR
GS
[0.75 0 0 0.75 0 0] CT
1 GC
N
0 0 560 420 re
f
GR
GS
[0.75 0 0 0.75 0 0] CT
1 GC
N
73 373 M
507 373 L
507 31 L
73 31 L
cp
f
GR
GS
[0.75 0 0 0.75 0 0] CT
0.873 GC
2 setlinecap
10.0 ML
N
73 373 M
73 31 L
S
GR
GS
[0.75 0 0 0.75 0 0] CT
0.873 GC
2 setlinecap
10.0 ML
N
127.25 373 M
127.25 31 L
S
GR
GS
[0.75 0 0 0.75 0 0] CT
0.873 GC
2 setlinecap
10.0 ML
N
181.5 373 M
181.5 31 L
S
GR
GS
[0.75 0 0 0.75 0 0] CT
0.873 GC
2 setlinecap
10.0 ML
N
235.75 373 M
235.75 31 L
S
GR
GS
[0.75 0 0 0.75 0 0] CT
0.873 GC
2 setlinecap
10.0 ML
N
290 373 M
290 31 L
S
GR
GS
[0.75 0 0 0.75 0 0] CT
0.873 GC
2 setlinecap
10.0 ML
N
344.25 373 M
344.25 31 L
S
GR
GS
[0.75 0 0 0.75 0 0] CT
0.873 GC
2 setlinecap
10.0 ML
N
398.5 373 M
398.5 31 L
S
GR
GS
[0.75 0 0 0.75 0 0] CT
0.873 GC
2 setlinecap
10.0 ML
N
452.75 373 M
452.75 31 L
S
GR
GS
[0.75 0 0 0.75 0 0] CT
0.873 GC
2 setlinecap
10.0 ML
N
507 373 M
507 31 L
S
GR
GS
[0.75 0 0 0.75 0 0] CT
0.873 GC
2 setlinecap
10.0 ML
N
507 373 M
73 373 L
S
GR
GS
[0.75 0 0 0.75 0 0] CT
0.873 GC
2 setlinecap
10.0 ML
N
507 316 M
73 316 L
S
GR
GS
[0.75 0 0 0.75 0 0] CT
0.873 GC
2 setlinecap
10.0 ML
N
507 259 M
73 259 L
S
GR
GS
[0.75 0 0 0.75 0 0] CT
0.873 GC
2 setlinecap
10.0 ML
N
507 202 M
73 202 L
S
GR
GS
[0.75 0 0 0.75 0 0] CT
0.873 GC
2 setlinecap
10.0 ML
N
507 145 M
73 145 L
S
GR
GS
[0.75 0 0 0.75 0 0] CT
0.873 GC
2 setlinecap
10.0 ML
N
507 88 M
73 88 L
S
GR
GS
[0.75 0 0 0.75 0 0] CT
0.873 GC
2 setlinecap
10.0 ML
N
507 31 M
73 31 L
S
GR
GS
[0.75 0 0 0.75 217.50016 298.5] CT
0.149 GC
/Helvetica 15 F
GS
[1 0 0 1 0 0] CT
-4 17 moveto 
1 -1 scale
(x) t 
GR
GR
GS
[0.75 0 0 0.75 0 0] CT
0.149 GC
2 setlinecap
10.0 ML
N
73 373 M
507 373 L
S
GR
GS
[0.75 0 0 0.75 0 0] CT
0.149 GC
2 setlinecap
10.0 ML
N
73 31 M
507 31 L
S
GR
GS
[0.75 0 0 0.75 0 0] CT
0.149 GC
2 setlinecap
10.0 ML
N
73 373 M
73 368.66 L
S
GR
GS
[0.75 0 0 0.75 0 0] CT
0.149 GC
2 setlinecap
10.0 ML
N
127.25 373 M
127.25 368.66 L
S
GR
GS
[0.75 0 0 0.75 0 0] CT
0.149 GC
2 setlinecap
10.0 ML
N
181.5 373 M
181.5 368.66 L
S
GR
GS
[0.75 0 0 0.75 0 0] CT
0.149 GC
2 setlinecap
10.0 ML
N
235.75 373 M
235.75 368.66 L
S
GR
GS
[0.75 0 0 0.75 0 0] CT
0.149 GC
2 setlinecap
10.0 ML
N
290 373 M
290 368.66 L
S
GR
GS
[0.75 0 0 0.75 0 0] CT
0.149 GC
2 setlinecap
10.0 ML
N
344.25 373 M
344.25 368.66 L
S
GR
GS
[0.75 0 0 0.75 0 0] CT
0.149 GC
2 setlinecap
10.0 ML
N
398.5 373 M
398.5 368.66 L
S
GR
GS
[0.75 0 0 0.75 0 0] CT
0.149 GC
2 setlinecap
10.0 ML
N
452.75 373 M
452.75 368.66 L
S
GR
GS
[0.75 0 0 0.75 0 0] CT
0.149 GC
2 setlinecap
10.0 ML
N
507 373 M
507 368.66 L
S
GR
GS
[0.75 0 0 0.75 0 0] CT
0.149 GC
2 setlinecap
10.0 ML
N
73 31 M
73 35.34 L
S
GR
GS
[0.75 0 0 0.75 0 0] CT
0.149 GC
2 setlinecap
10.0 ML
N
127.25 31 M
127.25 35.34 L
S
GR
GS
[0.75 0 0 0.75 0 0] CT
0.149 GC
2 setlinecap
10.0 ML
N
181.5 31 M
181.5 35.34 L
S
GR
GS
[0.75 0 0 0.75 0 0] CT
0.149 GC
2 setlinecap
10.0 ML
N
235.75 31 M
235.75 35.34 L
S
GR
GS
[0.75 0 0 0.75 0 0] CT
0.149 GC
2 setlinecap
10.0 ML
N
290 31 M
290 35.34 L
S
GR
GS
[0.75 0 0 0.75 0 0] CT
0.149 GC
2 setlinecap
10.0 ML
N
344.25 31 M
344.25 35.34 L
S
GR
GS
[0.75 0 0 0.75 0 0] CT
0.149 GC
2 setlinecap
10.0 ML
N
398.5 31 M
398.5 35.34 L
S
GR
GS
[0.75 0 0 0.75 0 0] CT
0.149 GC
2 setlinecap
10.0 ML
N
452.75 31 M
452.75 35.34 L
S
GR
GS
[0.75 0 0 0.75 0 0] CT
0.149 GC
2 setlinecap
10.0 ML
N
507 31 M
507 35.34 L
S
GR
GS
[0.75 0 0 0.75 54.75 283.75001] CT
0.149 GC
/Helvetica 13 F
GS
[1 0 0 1 0 0] CT
-4 14 moveto 
1 -1 scale
(0) t 
GR
GR
GS
[0.75 0 0 0.75 95.4375 283.75001] CT
0.149 GC
/Helvetica 13 F
GS
[1 0 0 1 0 0] CT
-9.5 14 moveto 
1 -1 scale
(0.5) t 
GR
GR
GS
[0.75 0 0 0.75 136.125 283.75001] CT
0.149 GC
/Helvetica 13 F
GS
[1 0 0 1 0 0] CT
-4 14 moveto 
1 -1 scale
(1) t 
GR
GR
GS
[0.75 0 0 0.75 176.8125 283.75001] CT
0.149 GC
/Helvetica 13 F
GS
[1 0 0 1 0 0] CT
-9.5 14 moveto 
1 -1 scale
(1.5) t 
GR
GR
GS
[0.75 0 0 0.75 217.5 283.75001] CT
0.149 GC
/Helvetica 13 F
GS
[1 0 0 1 0 0] CT
-4 14 moveto 
1 -1 scale
(2) t 
GR
GR
GS
[0.75 0 0 0.75 258.1875 283.75001] CT
0.149 GC
/Helvetica 13 F
GS
[1 0 0 1 0 0] CT
-9.5 14 moveto 
1 -1 scale
(2.5) t 
GR
GR
GS
[0.75 0 0 0.75 298.875 283.75001] CT
0.149 GC
/Helvetica 13 F
GS
[1 0 0 1 0 0] CT
-4 14 moveto 
1 -1 scale
(3) t 
GR
GR
GS
[0.75 0 0 0.75 339.5625 283.75001] CT
0.149 GC
/Helvetica 13 F
GS
[1 0 0 1 0 0] CT
-9.5 14 moveto 
1 -1 scale
(3.5) t 
GR
GR
GS
[0.75 0 0 0.75 380.25 283.75001] CT
0.149 GC
/Helvetica 13 F
GS
[1 0 0 1 0 0] CT
-4 14 moveto 
1 -1 scale
(4) t 
GR
GR
GS
[0 -0.75 0.75 0 38.75 151.49987] CT
0.149 GC
/Helvetica 15 F
GS
[1 0 0 1 0 0] CT
-11.5 -5 moveto 
1 -1 scale
(f\(x\)) t 
GR
GR
GS
[0.75 0 0 0.75 0 0] CT
0.149 GC
2 setlinecap
10.0 ML
N
73 373 M
73 31 L
S
GR
GS
[0.75 0 0 0.75 0 0] CT
0.149 GC
2 setlinecap
10.0 ML
N
507 373 M
507 31 L
S
GR
GS
[0.75 0 0 0.75 0 0] CT
0.149 GC
2 setlinecap
10.0 ML
N
73 373 M
77.34 373 L
S
GR
GS
[0.75 0 0 0.75 0 0] CT
0.149 GC
2 setlinecap
10.0 ML
N
73 316 M
77.34 316 L
S
GR
GS
[0.75 0 0 0.75 0 0] CT
0.149 GC
2 setlinecap
10.0 ML
N
73 259 M
77.34 259 L
S
GR
GS
[0.75 0 0 0.75 0 0] CT
0.149 GC
2 setlinecap
10.0 ML
N
73 202 M
77.34 202 L
S
GR
GS
[0.75 0 0 0.75 0 0] CT
0.149 GC
2 setlinecap
10.0 ML
N
73 145 M
77.34 145 L
S
GR
GS
[0.75 0 0 0.75 0 0] CT
0.149 GC
2 setlinecap
10.0 ML
N
73 88 M
77.34 88 L
S
GR
GS
[0.75 0 0 0.75 0 0] CT
0.149 GC
2 setlinecap
10.0 ML
N
73 31 M
77.34 31 L
S
GR
GS
[0.75 0 0 0.75 0 0] CT
0.149 GC
2 setlinecap
10.0 ML
N
507 373 M
502.66 373 L
S
GR
GS
[0.75 0 0 0.75 0 0] CT
0.149 GC
2 setlinecap
10.0 ML
N
507 316 M
502.66 316 L
S
GR
GS
[0.75 0 0 0.75 0 0] CT
0.149 GC
2 setlinecap
10.0 ML
N
507 259 M
502.66 259 L
S
GR
GS
[0.75 0 0 0.75 0 0] CT
0.149 GC
2 setlinecap
10.0 ML
N
507 202 M
502.66 202 L
S
GR
GS
[0.75 0 0 0.75 0 0] CT
0.149 GC
2 setlinecap
10.0 ML
N
507 145 M
502.66 145 L
S
GR
GS
[0.75 0 0 0.75 0 0] CT
0.149 GC
2 setlinecap
10.0 ML
N
507 88 M
502.66 88 L
S
GR
GS
[0.75 0 0 0.75 0 0] CT
0.149 GC
2 setlinecap
10.0 ML
N
507 31 M
502.66 31 L
S
GR
GS
[0.75 0 0 0.75 50.75 279.75] CT
0.149 GC
/Helvetica 13 F
GS
[1 0 0 1 0 0] CT
-12 5 moveto 
1 -1 scale
(-6) t 
GR
GR
GS
[0.75 0 0 0.75 50.75 237] CT
0.149 GC
/Helvetica 13 F
GS
[1 0 0 1 0 0] CT
-12 5 moveto 
1 -1 scale
(-4) t 
GR
GR
GS
[0.75 0 0 0.75 50.75 194.25] CT
0.149 GC
/Helvetica 13 F
GS
[1 0 0 1 0 0] CT
-12 5 moveto 
1 -1 scale
(-2) t 
GR
GR
GS
[0.75 0 0 0.75 50.75 151.5] CT
0.149 GC
/Helvetica 13 F
GS
[1 0 0 1 0 0] CT
-8 5 moveto 
1 -1 scale
(0) t 
GR
GR
GS
[0.75 0 0 0.75 50.75 108.75] CT
0.149 GC
/Helvetica 13 F
GS
[1 0 0 1 0 0] CT
-8 5 moveto 
1 -1 scale
(2) t 
GR
GR
GS
[0.75 0 0 0.75 50.75 66] CT
0.149 GC
/Helvetica 13 F
GS
[1 0 0 1 0 0] CT
-8 5 moveto 
1 -1 scale
(4) t 
GR
GR
GS
[0.75 0 0 0.75 50.75 23.25] CT
0.149 GC
/Helvetica 13 F
GS
[1 0 0 1 0 0] CT
-8 5 moveto 
1 -1 scale
(6) t 
GR
GR
GS
[0.75 0 0 0.75 0 0] CT
0 0.447 0.741 RC
2 LJ
N
74.085 332.962 M
75.17 312.923 L
76.255 301.082 L
77.34 292.598 L
78.425 285.953 L
79.51 280.472 L
80.595 275.794 L
81.68 271.703 L
82.765 268.061 L
83.85 264.774 L
84.935 261.772 L
86.02 259.008 L
87.105 256.441 L
88.19 254.044 L
89.275 251.793 L
90.36 249.669 L
91.445 247.656 L
92.53 245.742 L
93.615 243.916 L
94.7 242.169 L
95.785 240.493 L
96.87 238.883 L
97.955 237.331 L
99.04 235.833 L
100.125 234.384 L
101.21 232.982 L
102.295 231.621 L
103.38 230.3 L
104.465 229.014 L
105.55 227.763 L
106.635 226.544 L
107.72 225.354 L
108.805 224.192 L
109.89 223.056 L
110.975 221.945 L
112.06 220.857 L
113.145 219.791 L
114.23 218.746 L
115.315 217.721 L
116.4 216.714 L
117.485 215.726 L
118.57 214.754 L
119.655 213.798 L
120.74 212.858 L
121.825 211.932 L
122.91 211.021 L
123.995 210.123 L
125.08 209.238 L
126.165 208.365 L
127.25 207.505 L
S
GR
GS
[0.75 0 0 0.75 0 0] CT
0 0.447 0.741 RC
2 LJ
N
127.25 207.505 M
128.335 206.655 L
129.42 205.817 L
130.505 204.989 L
131.59 204.171 L
132.675 203.363 L
133.76 202.565 L
134.845 201.775 L
135.93 200.995 L
137.015 200.223 L
138.1 199.459 L
139.185 198.702 L
140.27 197.954 L
141.355 197.213 L
142.44 196.479 L
143.525 195.752 L
144.61 195.032 L
145.695 194.319 L
146.78 193.611 L
147.865 192.91 L
148.95 192.215 L
150.035 191.526 L
151.12 190.842 L
152.205 190.164 L
153.29 189.492 L
154.375 188.824 L
155.46 188.161 L
156.545 187.504 L
157.63 186.851 L
158.715 186.203 L
159.8 185.56 L
160.885 184.921 L
161.97 184.286 L
163.055 183.655 L
164.14 183.029 L
165.225 182.407 L
166.31 181.788 L
167.395 181.174 L
168.48 180.563 L
169.565 179.956 L
170.65 179.353 L
171.735 178.753 L
172.82 178.156 L
173.905 177.563 L
174.99 176.973 L
176.075 176.387 L
177.16 175.803 L
178.245 175.223 L
179.33 174.646 L
180.415 174.071 L
S
GR
GS
[0.75 0 0 0.75 0 0] CT
0 0.447 0.741 RC
2 LJ
N
180.415 174.071 M
181.5 173.5 L
182.585 172.931 L
183.67 172.366 L
184.755 171.803 L
185.84 171.242 L
186.925 170.684 L
188.01 170.129 L
189.095 169.577 L
190.18 169.027 L
191.265 168.479 L
192.35 167.934 L
193.435 167.391 L
194.52 166.85 L
195.605 166.312 L
196.69 165.776 L
197.775 165.242 L
198.86 164.71 L
199.945 164.18 L
201.03 163.653 L
202.115 163.127 L
203.2 162.604 L
204.285 162.082 L
205.37 161.563 L
206.455 161.045 L
207.54 160.529 L
208.625 160.015 L
209.71 159.503 L
210.795 158.993 L
211.88 158.484 L
212.965 157.978 L
214.05 157.473 L
215.135 156.969 L
216.22 156.467 L
217.305 155.967 L
218.39 155.469 L
219.475 154.972 L
220.56 154.477 L
221.645 153.983 L
222.73 153.491 L
223.815 153 L
224.9 152.511 L
225.985 152.023 L
227.07 151.536 L
228.155 151.051 L
229.24 150.568 L
230.325 150.085 L
231.41 149.605 L
232.495 149.125 L
233.58 148.647 L
S
GR
GS
[0.75 0 0 0.75 0 0] CT
0 0.447 0.741 RC
2 LJ
N
233.58 148.647 M
234.665 148.17 L
235.75 147.694 L
236.835 147.22 L
237.92 146.747 L
239.005 146.275 L
240.09 145.804 L
241.175 145.335 L
242.26 144.866 L
243.345 144.399 L
244.43 143.933 L
245.515 143.469 L
246.6 143.005 L
247.685 142.542 L
248.77 142.081 L
249.855 141.62 L
250.94 141.161 L
252.025 140.703 L
253.11 140.246 L
254.195 139.79 L
255.28 139.334 L
256.365 138.88 L
257.45 138.427 L
258.535 137.975 L
259.62 137.524 L
260.705 137.074 L
261.79 136.624 L
262.875 136.176 L
263.96 135.729 L
265.045 135.282 L
266.13 134.837 L
267.215 134.392 L
268.3 133.948 L
269.385 133.505 L
270.47 133.063 L
271.555 132.622 L
272.64 132.182 L
273.725 131.742 L
274.81 131.304 L
275.895 130.866 L
276.98 130.429 L
278.065 129.993 L
279.15 129.557 L
280.235 129.123 L
281.32 128.689 L
282.405 128.256 L
283.49 127.823 L
284.575 127.392 L
285.66 126.961 L
286.745 126.531 L
S
GR
GS
[0.75 0 0 0.75 0 0] CT
0 0.447 0.741 RC
2 LJ
N
286.745 126.531 M
287.83 126.102 L
288.915 125.673 L
290 125.245 L
291.085 124.818 L
292.17 124.392 L
293.255 123.966 L
294.34 123.541 L
295.425 123.117 L
296.51 122.693 L
297.595 122.27 L
298.68 121.848 L
299.765 121.426 L
300.85 121.005 L
301.935 120.584 L
303.02 120.165 L
304.105 119.746 L
305.19 119.327 L
306.275 118.909 L
307.36 118.492 L
308.445 118.075 L
309.53 117.659 L
310.615 117.244 L
311.7 116.829 L
312.785 116.415 L
313.87 116.001 L
314.955 115.588 L
316.04 115.175 L
317.125 114.763 L
318.21 114.352 L
319.295 113.941 L
320.38 113.531 L
321.465 113.121 L
322.55 112.712 L
323.635 112.303 L
324.72 111.895 L
325.805 111.488 L
326.89 111.081 L
327.975 110.674 L
329.06 110.268 L
330.145 109.863 L
331.23 109.458 L
332.315 109.053 L
333.4 108.649 L
334.485 108.246 L
335.57 107.843 L
336.655 107.44 L
337.74 107.038 L
338.825 106.636 L
339.91 106.235 L
S
GR
GS
[0.75 0 0 0.75 0 0] CT
0 0.447 0.741 RC
2 LJ
N
339.91 106.235 M
340.995 105.835 L
342.08 105.435 L
343.165 105.035 L
344.25 104.636 L
345.335 104.237 L
346.42 103.839 L
347.505 103.441 L
348.59 103.043 L
349.675 102.646 L
350.76 102.25 L
351.845 101.854 L
352.93 101.458 L
354.015 101.063 L
355.1 100.668 L
356.185 100.274 L
357.27 99.88 L
358.355 99.486 L
359.44 99.093 L
360.525 98.7 L
361.61 98.308 L
362.695 97.916 L
363.78 97.524 L
364.865 97.133 L
365.95 96.742 L
367.035 96.352 L
368.12 95.962 L
369.205 95.572 L
370.29 95.183 L
371.375 94.794 L
372.46 94.406 L
373.545 94.018 L
374.63 93.63 L
375.715 93.243 L
376.8 92.856 L
377.885 92.469 L
378.97 92.083 L
380.055 91.697 L
381.14 91.312 L
382.225 90.926 L
383.31 90.542 L
384.395 90.157 L
385.48 89.773 L
386.565 89.389 L
387.65 89.006 L
388.735 88.623 L
389.82 88.24 L
390.905 87.857 L
391.99 87.475 L
393.075 87.094 L
S
GR
GS
[0.75 0 0 0.75 0 0] CT
0 0.447 0.741 RC
2 LJ
N
393.075 87.094 M
394.16 86.712 L
395.245 86.331 L
396.33 85.95 L
397.415 85.57 L
398.5 85.19 L
399.585 84.81 L
400.67 84.43 L
401.755 84.051 L
402.84 83.672 L
403.925 83.293 L
405.01 82.915 L
406.095 82.537 L
407.18 82.16 L
408.265 81.782 L
409.35 81.405 L
410.435 81.028 L
411.52 80.652 L
412.605 80.276 L
413.69 79.9 L
414.775 79.524 L
415.86 79.149 L
416.945 78.774 L
418.03 78.399 L
419.115 78.024 L
420.2 77.65 L
421.285 77.276 L
422.37 76.903 L
423.455 76.529 L
424.54 76.156 L
425.625 75.783 L
426.71 75.411 L
427.795 75.038 L
428.88 74.666 L
429.965 74.295 L
431.05 73.923 L
432.135 73.552 L
433.22 73.181 L
434.305 72.81 L
435.39 72.44 L
436.475 72.07 L
437.56 71.7 L
438.645 71.33 L
439.73 70.961 L
440.815 70.591 L
441.9 70.222 L
442.985 69.854 L
444.07 69.485 L
445.155 69.117 L
446.24 68.749 L
S
GR
GS
[0.75 0 0 0.75 0 0] CT
0 0.447 0.741 RC
2 LJ
N
446.24 68.749 M
447.325 68.381 L
448.41 68.014 L
449.495 67.647 L
450.58 67.28 L
451.665 66.913 L
452.75 66.546 L
453.835 66.18 L
454.92 65.814 L
456.005 65.448 L
457.09 65.082 L
458.175 64.717 L
459.26 64.352 L
460.345 63.987 L
461.43 63.622 L
462.515 63.258 L
463.6 62.893 L
464.685 62.529 L
465.77 62.165 L
466.855 61.802 L
467.94 61.438 L
469.025 61.075 L
470.11 60.712 L
471.195 60.35 L
472.28 59.987 L
473.365 59.625 L
474.45 59.263 L
475.535 58.901 L
476.62 58.539 L
477.705 58.177 L
478.79 57.816 L
479.875 57.455 L
480.96 57.094 L
482.045 56.733 L
483.13 56.373 L
484.215 56.013 L
485.3 55.652 L
486.385 55.293 L
487.47 54.933 L
488.555 54.573 L
489.64 54.214 L
490.725 53.855 L
491.81 53.496 L
492.895 53.137 L
493.98 52.779 L
495.065 52.42 L
496.15 52.062 L
497.235 51.704 L
498.32 51.346 L
499.405 50.989 L
S
GR
GS
[0.75 0 0 0.75 0 0] CT
0 0.447 0.741 RC
2 LJ
N
499.405 50.989 M
500.49 50.631 L
501.575 50.274 L
502.66 49.917 L
503.745 49.56 L
504.83 49.203 L
505.915 48.847 L
507 48.491 L
S
GR
GS
[0.75 0 0 0.75 0 0] CT
2 LJ
N
73 202 M
507 202 L
S
GR
%%Trailer
%%Pages: 1
%%EOF
